property.id,property.property_key,property.value_en,property.value_th,property.value_ru,property.file_name,property.created_on,property.modified_on,property.created_by_id,property.updated_by_id,property.artifact_id,property.proj_release,property.sprint
1648,account.tooltip.accessString,Other ExxonMobil websites to which the user has access,เว็บไซต์ของเอ็กซอนโมบิลที่ผู้ใช้สามารถเข้าถึงได้,<NULL>,base,2015-04-03 10:23:13,2015-04-03 10:23:13,<NULL>,<NULL>,<NULL>,<NULL>,<NULL>
1649,account.tooltip.defaultLanguage,Default language associated with your User ID,ภาษาเริ่มต้นที่ผูกกับรหัสผู้ใช้,<NULL>,base,2015-04-03 10:23:13,2015-04-03 10:23:13,<NULL>,<NULL>,<NULL>,<NULL>,<NULL>
1650,account.tooltip.privileges,Features to which the user has access,คุณสมบัติที่ผู้ใช้สามารถใช้ได้,<NULL>,base,2015-04-03 10:23:13,2015-04-03 10:23:13,<NULL>,<NULL>,<NULL>,<NULL>,<NULL>
1651,account.tooltip.soldToAccount,The Sold-to(s) or Ship-to(s) to which the secondary user has access Manohar,รหัสบัญชีลูกค้าและรหัสของสถานที่จัดส่งซึ่งบัญชีลูกค้าที่สองสามารถใช้ได้,<NULL>,base,2015-04-03 10:23:13,2015-04-03 10:23:13,<NULL>,<NULL>,<NULL>,<NULL>,<NULL>
1652,business.retrieve.error,We are unable to process your request. Please contact customer service.,ระบบไม่สามารถดำเนินการคำร้องของท่านได้ กรุณาติดต่อฝ่ายบริการลูกค้า,<NULL>,base,2015-04-03 10:23:13,2015-04-03 10:23:13,<NULL>,manohar001@gmail.com,<NULL>,<NULL>,<NULL>
1653,business.save.error,We are unable to process your request. Please contact customer service.,ระบบไม่สามารถดำเนินการคำร้องของท่านได้ กรุณาติดต่อฝ่ายบริการลูกค้า,<NULL>,base,2015-04-03 10:23:13,2015-04-03 10:23:13,<NULL>,<NULL>,<NULL>,<NULL>,<NULL>
1654,catalog.content.add.addproduct,Add product,เพิ่มสินค้า,<NULL>,base,2015-04-03 10:23:13,2015-04-03 10:23:13,<NULL>,<NULL>,<NULL>,<NULL>,<NULL>
1655,catalog.content.add.addtoorder,Add to order,เพิ่มเข้าไปในคำสั่งซื้อ,<NULL>,base,2015-04-03 10:23:13,2015-04-03 10:23:13,<NULL>,<NULL>,<NULL>,<NULL>,<NULL>
1656,catalog.content.add.cancel,Cancel,ยกเลิก,<NULL>,base,2015-04-03 10:23:13,2015-04-03 10:23:13,<NULL>,<NULL>,<NULL>,<NULL>,<NULL>
1657,catalog.content.add.quantity,Quantity,จำนวน,<NULL>,base,2015-04-03 10:23:13,2015-04-03 10:23:13,<NULL>,<NULL>,<NULL>,<NULL>,<NULL>
1658,catalog.content.add.shipto,Ship-to,รหัสสถานที่จัดส่ง,<NULL>,base,2015-04-03 10:23:13,2015-04-03 10:23:13,<NULL>,<NULL>,<NULL>,<NULL>,<NULL>
1659,catalog.content.add.soldto,Sold-to,รหัสบัญชีลูกค้า,<NULL>,base,2015-04-03 10:23:13,2015-04-03 10:23:13,<NULL>,<NULL>,<NULL>,<NULL>,<NULL>
1660,catalog.content.addtoorder,Add to order,เพิ่มเข้าไปในคำสั่งซื้อ,<NULL>,base,2015-04-03 10:23:13,2015-04-03 10:23:13,<NULL>,<NULL>,<NULL>,<NULL>,<NULL>
1661,catalog.content.alertmessage.orderCreated,The product catalog has been filtered based on the in-process order,รายการสินค้าถูกแสดงโดยขึ้นอยู่กับคำสั่งซื้อที่กำลังถูกดำเนินการ,<NULL>,base,2015-04-03 10:23:13,2015-04-03 10:23:13,<NULL>,<NULL>,<NULL>,<NULL>,<NULL>
1662,catalog.content.alertmessage.pleasewait,Please wait,กรุณารอสักครู่,<NULL>,base,2015-04-03 10:23:13,2015-04-03 10:23:13,<NULL>,<NULL>,<NULL>,<NULL>,<NULL>
1663,catalog.content.availableshipto,Available for Ship-to,สินค้าพร้อมจัดส่งสำหรับรหัสจัดส่ง,<NULL>,base,2015-04-03 10:23:13,2015-04-03 10:23:13,<NULL>,<NULL>,<NULL>,<NULL>,<NULL>
1664,catalog.content.availablesoldto,Available for Sold-to,สร้างคำสั่งซื้อใหม่,<NULL>,base,2015-04-03 10:23:13,2015-04-03 10:23:13,<NULL>,<NULL>,<NULL>,<NULL>,<NULL>
1665,catalog.content.clearfilter,Clear Filter,กรอง ล้าง,<NULL>,base,2015-04-03 10:23:13,2015-04-03 10:23:13,<NULL>,<NULL>,<NULL>,<NULL>,<NULL>
1666,catalog.content.createneworder,Create new order,สร้างคำสั่งซื้อใหม่,<NULL>,base,2015-04-03 10:23:13,2015-04-03 10:23:13,<NULL>,<NULL>,<NULL>,<NULL>,<NULL>
1667,catalog.content.filter,Filter,ตั้งค่าตัวกรอง,<NULL>,base,2015-04-03 10:23:13,2015-04-03 10:23:13,<NULL>,<NULL>,<NULL>,<NULL>,<NULL>
1668,catalog.content.filtercurrent,(Filtered on current order),(ตั้งค่าตัวกรองของคำสั่งซื้อในปัจจุบัน),<NULL>,base,2015-04-03 10:23:13,2015-04-03 10:23:13,<NULL>,<NULL>,<NULL>,<NULL>,<NULL>
1669,catalog.content.heading,Products,รายการ,<NULL>,base,2015-04-03 10:23:13,2015-04-03 10:23:13,<NULL>,<NULL>,<NULL>,<NULL>,<NULL>
1670,catalog.content.materialname,Product name,ชื่อผลิตภัณฑ์,<NULL>,base,2015-04-03 10:23:13,2015-04-03 10:23:13,<NULL>,<NULL>,<NULL>,<NULL>,<NULL>
1671,catalog.content.materialnumber,Product number,เลขที่สินค้า,<NULL>,base,2015-04-03 10:23:13,2015-04-03 10:23:13,<NULL>,<NULL>,<NULL>,<NULL>,<NULL>
1672,catalog.content.moreproducts,Show more products ,แสดงผลิตภัณฑ์ทั้งหลาย,<NULL>,base,2015-04-03 10:23:13,2015-04-03 10:23:13,<NULL>,<NULL>,<NULL>,<NULL>,<NULL>
1673,catalog.content.msds,MSDS,MSDS,<NULL>,base,2015-04-03 10:23:13,2015-04-03 10:23:13,<NULL>,<NULL>,<NULL>,<NULL>,<NULL>
1674,catalog.content.nofilter,No matching results,ไม่มีรายการที่กำลังค้นหา,<NULL>,base,2015-04-03 10:23:13,2015-04-03 10:23:13,<NULL>,<NULL>,<NULL>,<NULL>,<NULL>
1675,catalog.content.nomoreproducts,There are no more products to show,ไม่มีรายการสินค้าที่จะแสดง,<NULL>,base,2015-04-03 10:23:13,2015-04-03 10:23:13,<NULL>,<NULL>,<NULL>,<NULL>,<NULL>
1676,catalog.content.noOfProds,Catalog,รายการ,<NULL>,base,2015-04-03 10:23:13,2015-04-03 10:23:13,<NULL>,<NULL>,<NULL>,<NULL>,<NULL>
1677,catalog.content.packtype,Package type,ชนิดบรรจุภัณฑ์,<NULL>,base,2015-04-03 10:23:13,2015-04-03 10:23:13,<NULL>,<NULL>,<NULL>,<NULL>,<NULL>
1678,catalog.content.pds,PDS,ข้อมูลผลิตภัณฑ์,<NULL>,base,2015-04-03 10:23:13,2015-04-03 10:23:13,<NULL>,<NULL>,<NULL>,<NULL>,<NULL>
1679,catalog.content.productfamily,Product family,กลุ่มผลิตภัณฑ์,<NULL>,base,2015-04-03 10:23:13,2015-04-03 10:23:13,<NULL>,<NULL>,<NULL>,<NULL>,<NULL>
1680,catalog.content.products,Products,ผลิตภัณฑ์,<NULL>,base,2015-04-03 10:23:13,2015-04-03 10:23:13,<NULL>,<NULL>,<NULL>,<NULL>,<NULL>
1681,catalog.content.search,Search products,ค้นหาผลิตภัณฑ์หล่อลื่น,<NULL>,base,2015-04-03 10:23:13,2015-04-03 10:23:13,<NULL>,<NULL>,<NULL>,<NULL>,<NULL>
1682,catalog.content.shipto.add.placeholder,"Enter Ship-to name, number, or address",อัปโหลดคำสั่งซื้อ,<NULL>,base,2015-04-03 10:23:13,2015-04-03 10:23:13,<NULL>,<NULL>,<NULL>,<NULL>,<NULL>
1683,catalog.content.shipto.placeholder,Ship-to (Address),ที่อยู่ (2),<NULL>,base,2015-04-03 10:23:13,2015-04-03 10:23:13,<NULL>,<NULL>,<NULL>,<NULL>,<NULL>
1684,catalog.content.show,Show,แสดง,<NULL>,base,2015-04-03 10:23:13,2015-04-03 10:23:13,<NULL>,<NULL>,<NULL>,<NULL>,<NULL>
1685,catalog.content.sortby,Sort by ,ลำดับโดย,<NULL>,base,2015-04-03 10:23:13,2015-04-03 10:23:13,<NULL>,<NULL>,<NULL>,<NULL>,<NULL>
1686,cms.item.not.found.error,We are unable to process your request. Please try again later.,ระบบไม่สามารถดำเนินการคำร้องของท่านได้ในขณะนี้ กรุณาติดต่อกลับมาในภายหลัง,<NULL>,base,2015-04-03 10:23:13,2015-04-03 10:23:13,<NULL>,<NULL>,<NULL>,<NULL>,<NULL>
1687,createtemplate.overlay.leavepagemsg,Do you want to navigate away from the page without saving the template?,ท่านต้องการที่จะออกจากหน้านี้โดยที่ยังไม่ได้บันทึกการเปลี่ยนแปลงของแม่แบบหรือไม่?,<NULL>,base,2015-04-03 10:23:13,2015-04-03 10:23:13,<NULL>,<NULL>,<NULL>,<NULL>,<NULL>
1688,createtemplate.overlay.logoutMsg,Do you want to logout without saving the template?,ท่านต้องการออกจากระบบโดยที่ยังไม่ได้บันทึกแม่แบบหรือไม่?,<NULL>,base,2015-04-03 10:23:13,2015-04-03 10:23:13,<NULL>,<NULL>,<NULL>,<NULL>,<NULL>
1689,createtemplate.overlay.next,Next,ถัดไป,<NULL>,base,2015-04-03 10:23:13,2015-04-03 10:23:13,<NULL>,<NULL>,<NULL>,<NULL>,<NULL>
1690,createtemplate.overlay.proceed,Next,ดำเนินการ,<NULL>,base,2015-04-03 10:23:13,2015-04-03 10:23:13,<NULL>,<NULL>,<NULL>,<NULL>,<NULL>
1691,createtemplate.overlay.stayonthepage,Stay on the page,อยู่ที่หน้านี้,<NULL>,base,2015-04-03 10:23:13,2015-04-03 10:23:13,<NULL>,<NULL>,<NULL>,<NULL>,<NULL>
1692,createtemplate.overlay.unsavedchanges,Unsaved changes,การเปลี่ยนแปลงไม่ได้ถูกบันทึก,<NULL>,base,2015-04-03 10:23:13,2015-04-03 10:23:13,<NULL>,<NULL>,<NULL>,<NULL>,<NULL>
1693,date.error,The start-date must precede the end-date,วันที่เริ่มต้นต้องอยู่ก่อนวันที่จบ,<NULL>,base,2015-04-03 10:23:13,2015-04-03 10:23:13,<NULL>,<NULL>,<NULL>,<NULL>,<NULL>
1694,date.limit.error,You can view data only for last 13 months,ท่านสามารถดูข้อมูลย้อนหลังได้13เดือน,<NULL>,base,2015-04-03 10:23:13,2015-04-03 10:23:13,<NULL>,<NULL>,<NULL>,<NULL>,<NULL>
1695,default.error,We are unable to process your request. Please contact customer service.,ระบบไม่สามารถดำเนินการคำร้องของท่านได้ กรุณาติดต่อฝ่ายบริการลูกค้า,<NULL>,base,2015-04-03 10:23:13,2015-04-03 10:23:13,<NULL>,<NULL>,<NULL>,<NULL>,<NULL>
1696,editprofile.content.access,Access,การขอเข้าระบบ,<NULL>,base,2015-04-03 10:23:13,2015-04-03 10:23:13,<NULL>,<NULL>,<NULL>,<NULL>,<NULL>
1697,editprofile.content.accesstext,Access to other ExxonMobil systems,การขอเพิ่มระบบเพื่อใช้งาน,<NULL>,base,2015-04-03 10:23:13,2015-04-03 10:23:13,<NULL>,<NULL>,<NULL>,<NULL>,<NULL>
1698,editprofile.content.addEmail ,Add email,เพิ่มอีเมล์,<NULL>,base,2015-04-03 10:23:13,2015-04-03 10:23:13,<NULL>,<NULL>,<NULL>,<NULL>,<NULL>
1699,editprofile.content.addevent,Add event,เพิ่มเหตุการณ์,<NULL>,base,2015-04-03 10:23:13,2015-04-03 10:23:13,<NULL>,<NULL>,<NULL>,<NULL>,<NULL>
1700,editprofile.content.addrecipient,Add recipient,เพิ่มผู้รับ,<NULL>,base,2015-04-03 10:23:13,2015-04-03 10:23:13,<NULL>,<NULL>,<NULL>,<NULL>,<NULL>
1701,editprofile.content.cancel,Cancel,ยกเลิก,<NULL>,base,2015-04-03 10:23:13,2015-04-03 10:23:13,<NULL>,<NULL>,<NULL>,<NULL>,<NULL>
1702,editprofile.content.changepassword,Change Password,เปลี่ยนรหัสผ่าน,<NULL>,base,2015-04-03 10:23:13,2015-04-03 10:23:13,<NULL>,<NULL>,<NULL>,<NULL>,<NULL>
1703,editprofile.content.citystatezip,"City, state, zip code",ตำบล,<NULL>,base,2015-04-03 10:23:13,2015-04-03 10:23:13,<NULL>,<NULL>,<NULL>,<NULL>,<NULL>
1704,editprofile.content.country,Country,ประเทศ,<NULL>,base,2015-04-03 10:23:13,2015-04-03 10:23:13,<NULL>,<NULL>,<NULL>,<NULL>,<NULL>
1705,editprofile.content.defaultlang,Default language,ภาษาเริ่มต้น,<NULL>,base,2015-04-03 10:23:13,2015-04-03 10:23:13,<NULL>,<NULL>,<NULL>,<NULL>,<NULL>
1706,editprofile.content.defaultlanguage,Default language,ภาษาเริ่มต้น,<NULL>,base,2015-04-03 10:23:13,2015-04-03 10:23:13,<NULL>,<NULL>,<NULL>,<NULL>,<NULL>
1707,editprofile.content.edit,Edit,แก้ไข,<NULL>,base,2015-04-03 10:23:13,2015-04-03 10:23:13,<NULL>,<NULL>,<NULL>,<NULL>,<NULL>
1708,editprofile.content.email,Email,อีเมล์,<NULL>,base,2015-04-03 10:23:13,2015-04-03 10:23:13,<NULL>,<NULL>,<NULL>,<NULL>,<NULL>
1709,editprofile.content.emailaddress,Email,อีเมล์,<NULL>,base,2015-04-03 10:23:13,2015-04-03 10:23:13,<NULL>,<NULL>,<NULL>,<NULL>,<NULL>
1710,editprofile.content.eventnotifications,Event notifications,เอกสารยืนยัน,<NULL>,base,2015-04-03 10:23:13,2015-04-03 10:23:13,<NULL>,<NULL>,<NULL>,<NULL>,<NULL>
1711,editprofile.content.eventnotifications.error,Please enter a valid email address,กรุณาใส่อีเมล์ที่ถูกต้อง,<NULL>,base,2015-04-03 10:23:13,2015-04-03 10:23:13,<NULL>,<NULL>,<NULL>,<NULL>,<NULL>
1712,editprofile.content.filter,"Filter by city, zip code, etc.",ตั้งค่าตัวกรองโดยตำบล,<NULL>,base,2015-04-03 10:23:13,2015-04-03 10:23:13,<NULL>,<NULL>,<NULL>,<NULL>,<NULL>
1713,editprofile.content.generalinformation,General Information,ข้อมูลข่าวสารทั่วไป,<NULL>,base,2015-04-03 10:23:13,2015-04-03 10:23:13,<NULL>,<NULL>,<NULL>,<NULL>,<NULL>
1714,editprofile.content.heading,User profile,บัญชีของฉัน,<NULL>,base,2015-04-03 10:23:13,2015-04-03 10:23:13,<NULL>,<NULL>,<NULL>,<NULL>,<NULL>
1715,editprofile.content.name,Name,ชื่อ นามสกุล,<NULL>,base,2015-04-03 10:23:13,2015-04-03 10:23:13,<NULL>,<NULL>,<NULL>,<NULL>,<NULL>
1716,editprofile.content.orderacknowledged,Order acknowledged,รับทราบคำสั่งซื้อ,<NULL>,base,2015-04-03 10:23:13,2015-04-03 10:23:13,<NULL>,<NULL>,<NULL>,<NULL>,<NULL>
1717,editprofile.content.phonecodeerror,Please enter a valid area code,กรุณาใส่รหัสพื้นที่ให้ถูกต้อง,<NULL>,base,2015-04-03 10:23:13,2015-04-03 10:23:13,<NULL>,<NULL>,<NULL>,<NULL>,<NULL>
1718,editprofile.content.phonenumber,Phone number,เบอร์โทรศัพท์,<NULL>,base,2015-04-03 10:23:13,2015-04-03 10:23:13,<NULL>,<NULL>,<NULL>,<NULL>,<NULL>
1719,editprofile.content.phonenumbererror,Please enter a valid phone number,กรุณาใส่เบอร์โทรศัพท์ที่สามารถติดต่อได้,<NULL>,base,2015-04-03 10:23:13,2015-04-03 10:23:13,<NULL>,<NULL>,<NULL>,<NULL>,<NULL>
1720,editprofile.content.profilelinks,Profile Links,ลิงค์ของโปรไฟล์,<NULL>,base,2015-04-03 10:23:13,2015-04-03 10:23:13,<NULL>,<NULL>,<NULL>,<NULL>,<NULL>
1721,editprofile.content.reassign.email,Email,อีเมล์,<NULL>,base,2015-04-03 10:23:13,2015-04-03 10:23:13,<NULL>,<NULL>,<NULL>,<NULL>,<NULL>
1722,editprofile.content.reassign.filter,"Filter by User ID, name, or email address",ตั้งค่าตัวกรองโดยรหัสผู้ใช้,<NULL>,base,2015-04-03 10:23:13,2015-04-03 10:23:13,<NULL>,<NULL>,<NULL>,<NULL>,<NULL>
1723,editprofile.content.reassign.name,Name,ชื่อ นามสกุล,<NULL>,base,2015-04-03 10:23:13,2015-04-03 10:23:13,<NULL>,<NULL>,<NULL>,<NULL>,<NULL>
1724,editprofile.content.reassign.retry,Role reassignment failed. Please try again.,การกำหนดบทบาทล้มเหลว กรุณาทำรายการใหม่,<NULL>,base,2015-04-03 10:23:13,2015-04-03 10:23:13,<NULL>,<NULL>,<NULL>,<NULL>,<NULL>
1725,editprofile.content.reassign.sec.success,You have been designated as the primary user. You will be logged out after clicking OK.,ท่านได้ถูกการกำหนดให้เป็นผู้ใช้หลัก ท่านจะออกจากระบบหลังจากกด โอเค!,<NULL>,base,2015-04-03 10:23:13,2015-04-03 10:23:13,<NULL>,<NULL>,<NULL>,<NULL>,<NULL>
1726,editprofile.content.reassign.success,Reassignment of the primary role was successful. You will be logged out after clicking OK.,การกำหนดผู้ใช้งานหลักใหม่สำเร็จแล้ว ท่านจะออกจากระบบหลังจากกด โอเค!,<NULL>,base,2015-04-03 10:23:13,2015-04-03 10:23:13,<NULL>,<NULL>,<NULL>,<NULL>,<NULL>
1727,editprofile.content.reassign.success.ok,OK,โอเค,<NULL>,base,2015-04-03 10:23:13,2015-04-03 10:23:13,<NULL>,<NULL>,<NULL>,<NULL>,<NULL>
1728,editprofile.content.reassign.userid,User ID,ชื่อลูกค้า,<NULL>,base,2015-04-03 10:23:13,2015-04-03 10:23:13,<NULL>,<NULL>,<NULL>,<NULL>,<NULL>
1729,editprofile.content.reassignprimaryrole,Reassign primary role,การกำหนดผู้ใช้งานหลักใหม่,<NULL>,base,2015-04-03 10:23:13,2015-04-03 10:23:13,<NULL>,<NULL>,<NULL>,<NULL>,<NULL>
1730,editprofile.content.save,Save,บันทึก,<NULL>,base,2015-04-03 10:23:13,2015-04-03 10:23:13,<NULL>,<NULL>,<NULL>,<NULL>,<NULL>
1731,editprofile.content.selectnewprimary,Select new primary user,เลือกผู้ใช้งานหลัก,<NULL>,base,2015-04-03 10:23:13,2015-04-03 10:23:13,<NULL>,<NULL>,<NULL>,<NULL>,<NULL>
1732,editprofile.content.selectprimary,Select new primary user,เลือกผู้ใช้งานหลัก,<NULL>,base,2015-04-03 10:23:13,2015-04-03 10:23:13,<NULL>,<NULL>,<NULL>,<NULL>,<NULL>
1733,editprofile.content.selectuser,Please select the user to whom you wish to assign the primary role,กรุณาเลือกผู้ใช้ที่ท่านต้องการที่จะกำหนดให้มีบทบาทเป็นผู้ใช้หลัก,<NULL>,base,2015-04-03 10:23:13,2015-04-03 10:23:13,<NULL>,<NULL>,<NULL>,<NULL>,<NULL>
1734,editprofile.content.setuppasswordhints,Setup password hints,คำแนะนำการตั้งค่ารหัสผ่าน,<NULL>,base,2015-04-03 10:23:13,2015-04-03 10:23:13,<NULL>,<NULL>,<NULL>,<NULL>,<NULL>
1735,editprofile.content.shipto,Ship-to(s):,รหัสบัญชีทั้งหมด,<NULL>,base,2015-04-03 10:23:13,2015-04-03 10:23:13,<NULL>,<NULL>,<NULL>,<NULL>,<NULL>
1736,editprofile.content.shiptonumber,Ship-to,รหัสของสถานที่จัดส่ง,<NULL>,base,2015-04-03 10:23:13,2015-04-03 10:23:13,<NULL>,<NULL>,<NULL>,<NULL>,<NULL>
1737,editprofile.content.shiptos,Ship-to(s),รหัสของสถานที่จัดส่ง,<NULL>,base,2015-04-03 10:23:13,2015-04-03 10:23:13,<NULL>,<NULL>,<NULL>,<NULL>,<NULL>
1738,editprofile.content.shiptostotal,Ship-to(s):,รหัสจัดส่งทั้งหมด,<NULL>,base,2015-04-03 10:23:13,2015-04-03 10:23:13,<NULL>,<NULL>,<NULL>,<NULL>,<NULL>
1739,editprofile.content.soldtoaccess,Sold-to access,การเข้าสู่รหัสบัญชีลูกค้า,<NULL>,base,2015-04-03 10:23:13,2015-04-03 10:23:13,<NULL>,<NULL>,<NULL>,<NULL>,<NULL>
1740,editprofile.content.streetaddress,Street Address,ที่อยู่,<NULL>,base,2015-04-03 10:23:13,2015-04-03 10:23:13,<NULL>,<NULL>,<NULL>,<NULL>,<NULL>
1741,editprofile.content.systemtext,Links to these applications will be available on your dashboard,การเชื่อมต่อแอปพริเคชั่นเหล่านี้สามารถทำได้ในเวปไซด์ของท่าน,<NULL>,base,2015-04-03 10:23:13,2015-04-03 10:23:13,<NULL>,<NULL>,<NULL>,<NULL>,<NULL>
1742,editprofile.content.userid,User ID,ชื่อลูกค้า,<NULL>,base,2015-04-03 10:23:13,2015-04-03 10:23:13,<NULL>,<NULL>,<NULL>,<NULL>,<NULL>
1743,editprofile.content.username,User ID,ชื่อลูกค้า,<NULL>,base,2015-04-03 10:23:13,2015-04-03 10:23:13,<NULL>,<NULL>,<NULL>,<NULL>,<NULL>
1744,editprofile.language.success,Language has been updated,ภาษาได้รับการปรับปรุง,<NULL>,base,2015-04-03 10:23:13,2015-04-03 10:23:13,<NULL>,<NULL>,<NULL>,<NULL>,<NULL>
1745,editprofile.overlay.leavepagemsg,Do you want to navigate away from the page without saving the profile changes?,ท่านต้องการที่จะออกจากหน้านี้โดยที่ยังไม่ได้บันทึกการเปลี่ยนแปลงของโปรไฟล์หรือไม่? ,<NULL>,base,2015-04-03 10:23:13,2015-04-03 10:23:13,<NULL>,<NULL>,<NULL>,<NULL>,<NULL>
1746,editprofile.overlay.logoutMsg,Do you want to logout without saving the profile changes?,ท่านต้องการที่จะออกจากระบบโดยไม่บันทึก,<NULL>,base,2015-04-03 10:23:13,2015-04-03 10:23:13,<NULL>,<NULL>,<NULL>,<NULL>,<NULL>
1747,editprofile.overlay.next,Next,ถัดไป,<NULL>,base,2015-04-03 10:23:13,2015-04-03 10:23:13,<NULL>,<NULL>,<NULL>,<NULL>,<NULL>
1748,editprofile.overlay.proceed,Next,ดำเนินการต่อไป,<NULL>,base,2015-04-03 10:23:13,2015-04-03 10:23:13,<NULL>,<NULL>,<NULL>,<NULL>,<NULL>
1749,editprofile.overlay.stayonthepage,Stay on the page,อยู่ที่หน้านี้,<NULL>,base,2015-04-03 10:23:13,2015-04-03 10:23:13,<NULL>,<NULL>,<NULL>,<NULL>,<NULL>
1750,editprofile.overlay.unsavedchanges,Unsaved changes,การเปลี่ยนแปลงไม่ได้ถูกบันทึก,<NULL>,base,2015-04-03 10:23:13,2015-04-03 10:23:13,<NULL>,<NULL>,<NULL>,<NULL>,<NULL>
1751,editprofile.phone.success,Phone number has been updated,เบอร์โทรศัพท์ได้รับการปรับปรุง,<NULL>,base,2015-04-03 10:23:13,2015-04-03 10:23:13,<NULL>,<NULL>,<NULL>,<NULL>,<NULL>
1752,email.id.not.unique.error,A request for a user profile associated with this email address already exists. Please contact customer service.,อีเมล์ในคำร้องขอได้ถูกใช้แล้ว กรุณาติดต่อฝ่ายบริการลูกค้า,<NULL>,base,2015-04-03 10:23:13,2015-04-03 10:23:13,<NULL>,<NULL>,<NULL>,<NULL>,<NULL>
1753,error.403.deactivated.message,Your User ID has been deactivated. Please contact customer service.,ชื่อผู้ใช้ของท่านได้ถูกยกเลิกการใช้งานชั่วคราว กรุณาติดต่อฝ่ายบริการลูกค้า,<NULL>,base,2015-04-03 10:23:13,2015-04-03 10:23:13,<NULL>,<NULL>,<NULL>,<NULL>,<NULL>
1754,error.403.locked.message,Your User ID has been locked. Please contact customer service.,ชื่อผู้ใช้ของท่านได้ถูกล๊อกชั่วคราว กรุณาติดต่อฝ่ายบริการลูกค้า,<NULL>,base,2015-04-03 10:23:13,2015-04-03 10:23:13,<NULL>,<NULL>,<NULL>,<NULL>,<NULL>
1755,error.403.thank-you-text,Thank you,ขอบคุณ,<NULL>,base,2015-04-03 10:23:13,2015-04-03 10:23:13,<NULL>,<NULL>,<NULL>,<NULL>,<NULL>
1756,footer.copyright,© Copyright 2003-2014 ExxonMobil Corporation. All Rights Reserved.,ลิขสิทธิ์ของบริษัทเอ็กซอน โมบิล คอร์ปอเรชั่น  ซึ่งได้สร้างสรรค์งานนี้ขึ้นระหว่างปี พ.ศ. ๒๕๔๖–๒๕๕๗  สงวนสิทธิ์ทุกประการ,<NULL>,base,2015-04-03 10:23:13,2015-04-03 10:23:13,<NULL>,<NULL>,<NULL>,<NULL>,<NULL>
1757,homepage.ago,ago,ก่อนหน้า,<NULL>,base,2015-04-03 10:23:13,2015-04-03 10:23:13,<NULL>,<NULL>,<NULL>,<NULL>,<NULL>
1758,homepage.browsecatalog,Browse products,ดูข้อมูลเกี่ยวกับผลิตภัณฑ์,<NULL>,base,2015-04-03 10:23:13,2015-04-03 10:23:13,<NULL>,<NULL>,<NULL>,<NULL>,<NULL>
1759,homepage.Close,Close,ปิด,<NULL>,base,2015-04-03 10:23:13,2015-04-03 10:23:13,<NULL>,<NULL>,<NULL>,<NULL>,<NULL>
1760,homepage.createdon,Created on,สร้างเมื่อ,<NULL>,base,2015-04-03 10:23:13,2015-04-03 10:23:13,<NULL>,<NULL>,<NULL>,<NULL>,<NULL>
1761,homepage.createorder,Create order,สร้างคำสั่งซื้อ,<NULL>,base,2015-04-03 10:23:13,2015-04-03 10:23:13,<NULL>,<NULL>,<NULL>,<NULL>,<NULL>
1762,homepage.draft,Draft,แบบร่างคำสั่งซื้อ,<NULL>,base,2015-04-03 10:23:13,2015-04-03 10:23:13,<NULL>,<NULL>,<NULL>,<NULL>,<NULL>
1763,homepage.home,Home,หน้าแรก,<NULL>,base,2015-04-03 10:23:13,2015-04-03 10:23:13,<NULL>,<NULL>,<NULL>,<NULL>,<NULL>
1764,homepage.latestorders,Latest orders,คำสั่งซื้อล่าสุด,<NULL>,base,2015-04-03 10:23:13,2015-04-03 10:23:13,<NULL>,<NULL>,<NULL>,<NULL>,<NULL>
1765,homepage.managetemplates,Manage templates,สร้างแม่แบบคำสั่งซื้อ,<NULL>,base,2015-04-03 10:23:13,2015-04-03 10:23:13,<NULL>,<NULL>,<NULL>,<NULL>,<NULL>
1766,homepage.neworder,New order,คำสั่งซื้อใหม่,<NULL>,base,2015-04-03 10:23:13,2015-04-03 10:23:13,<NULL>,<NULL>,<NULL>,<NULL>,<NULL>
1767,homepage.noorders,No order data available,ไม่มีข้อมูลเกี่ยวกับคำสั่งซื้อ,<NULL>,base,2015-04-03 10:23:13,2015-04-03 10:23:13,<NULL>,<NULL>,<NULL>,<NULL>,<NULL>
1768,homepage.orders,Order(s),คำสั่งซื้อ,<NULL>,base,2015-04-03 10:23:13,2015-04-03 10:23:13,<NULL>,<NULL>,<NULL>,<NULL>,<NULL>
1769,homepage.po,Purchase Order number:,เลขที่ใบสั่งซื้อ,<NULL>,base,2015-04-03 10:23:13,2015-04-03 10:23:13,<NULL>,<NULL>,<NULL>,<NULL>,<NULL>
1770,homepage.shipto,Ship-to:,รหัสสถานที่จัดส่ง,<NULL>,base,2015-04-03 10:23:13,2015-04-03 10:23:13,<NULL>,<NULL>,<NULL>,<NULL>,<NULL>
1771,homepage.submitted,Submitted,ยืนยันคำสั่งซื้อแล้ว,<NULL>,base,2015-04-03 10:23:13,2015-04-03 10:23:13,<NULL>,<NULL>,<NULL>,<NULL>,<NULL>
1772,homepage.upload,Upload,อัปโหลด,<NULL>,base,2015-04-03 10:23:13,2015-04-03 10:23:13,<NULL>,<NULL>,<NULL>,<NULL>,<NULL>
1773,homepage.usetemplate,Use template,ใช้แม่แบบคำสั่งซื้อ,<NULL>,base,2015-04-03 10:23:13,2015-04-03 10:23:13,<NULL>,<NULL>,<NULL>,<NULL>,<NULL>
1774,homepage.vieworders,View orders,ดูคำสั่งซื้อ,<NULL>,base,2015-04-03 10:23:13,2015-04-03 10:23:13,<NULL>,<NULL>,<NULL>,<NULL>,<NULL>
1775,logout.defaultoverlay.confirm,Please confirm logout,กรุณา ยืนยันการ ออกจากระบบ,<NULL>,base,2015-04-03 10:23:13,2015-04-03 10:23:13,<NULL>,<NULL>,<NULL>,<NULL>,<NULL>
1776,logout.defaultoverlay.logoutheader,Logout,ออกจากระบบ,<NULL>,base,2015-04-03 10:23:13,2015-04-03 10:23:13,<NULL>,<NULL>,<NULL>,<NULL>,<NULL>
1777,logout.defaultoverlay.no,No,ไม่,<NULL>,base,2015-04-03 10:23:13,2015-04-03 10:23:13,<NULL>,<NULL>,<NULL>,<NULL>,<NULL>
1778,logout.defaultoverlay.yes,Yes,ใช่,<NULL>,base,2015-04-03 10:23:13,2015-04-03 10:23:13,<NULL>,<NULL>,<NULL>,<NULL>,<NULL>
1779,logout.timeoutoverlay.confirm,You will be automatically logged out in 5 minutes due to inactivity. Do you wish to logout now?,ท่านกำลังจะออกจากระบบภายใน 5 นาทีเนื่องจากไม่มีกิจกรรมใดๆ ท่านต้องการจะออกจากระบบตอนนี้หรือไม่?,<NULL>,base,2015-04-03 10:23:13,2015-04-03 10:23:13,<NULL>,<NULL>,<NULL>,<NULL>,<NULL>
1780,logout.timeoutoverlay.logout,Logout,ออกจากระบบ,<NULL>,base,2015-04-03 10:23:13,2015-04-03 10:23:13,<NULL>,<NULL>,<NULL>,<NULL>,<NULL>
1781,logout.timeoutoverlay.logoutheader,Session timeout,หมดเวลา,<NULL>,base,2015-04-03 10:23:13,2015-04-03 10:23:13,<NULL>,<NULL>,<NULL>,<NULL>,<NULL>
1782,logout.timeoutoverlay.stayconnected,Stay on the page,อยู่ที่หน้านี้,<NULL>,base,2015-04-03 10:23:13,2015-04-03 10:23:13,<NULL>,<NULL>,<NULL>,<NULL>,<NULL>
1783,logout.withcartoverlay.confirmcartmsg,Do you wish to save your order as a draft before logging out?,ท่านต้องการที่จะบันทึกคำสั่งซื้อของท่านให้เป็นร่างคำสั่งซื้อก่อนที่จะออกจากระบบหรือไม่?,<NULL>,base,2015-04-03 10:23:13,2015-04-03 10:23:13,<NULL>,<NULL>,<NULL>,<NULL>,<NULL>
1784,logout.withcartoverlay.confirmchangecartmsg,Do you wish to submit your order before logging out?,ท่านต้องการที่จะส่งคำสั่งซื้อของท่านก่อนออกจากระบบหรือไม่?,<NULL>,base,2015-04-03 10:23:13,2015-04-03 10:23:13,<NULL>,<NULL>,<NULL>,<NULL>,<NULL>
1785,logout.withcartoverlay.logout,Logout,ออกจากระบบ,<NULL>,base,2015-04-03 10:23:13,2015-04-03 10:23:13,<NULL>,<NULL>,<NULL>,<NULL>,<NULL>
1786,logout.withcartoverlay.logoutheader,Logout,ออกจากระบบ,<NULL>,base,2015-04-03 10:23:13,2015-04-03 10:23:13,<NULL>,<NULL>,<NULL>,<NULL>,<NULL>
1787,logout.withcartoverlay.stayconnected,Stay on the page,อยู่ที่หน้านี้,<NULL>,base,2015-04-03 10:23:13,2015-04-03 10:23:13,<NULL>,<NULL>,<NULL>,<NULL>,<NULL>
1788,manageaccount.deletesecondaryuser.error,Unable to delete user. Please contact customer service.,ไม่สามารถลบผู้ใช้ กรุณาติดต่อฝ่ายบริการลูกค้า,<NULL>,base,2015-04-03 10:23:13,2015-04-03 10:23:13,<NULL>,<NULL>,<NULL>,<NULL>,<NULL>
1789,manageaccount.deletesecondaryuser.success,User deleted,ผู้ใช้ได้ถูกลบแล้ว,<NULL>,base,2015-04-03 10:23:13,2015-04-03 10:23:13,<NULL>,<NULL>,<NULL>,<NULL>,<NULL>
1790,minicart.currentorder,Current order,คำสั่งซื้อปัจจุบัน,<NULL>,base,2015-04-03 10:23:13,2015-04-03 10:23:13,<NULL>,<NULL>,<NULL>,<NULL>,<NULL>
1791,minicart.ordercreated,Order created,คำสั่งซื้อได้ถูกสร้างแล้ว,<NULL>,base,2015-04-03 10:23:13,2015-04-03 10:23:13,<NULL>,<NULL>,<NULL>,<NULL>,<NULL>
1792,minicart.productinorder,Product in order,สินค้าในคำสั่งซื้อ,<NULL>,base,2015-04-03 10:23:13,2015-04-03 10:23:13,<NULL>,<NULL>,<NULL>,<NULL>,<NULL>
1793,minicart.savedraft,Save Draft,เก็บแบบร่างคำสั่งซื้อ,<NULL>,base,2015-04-03 10:23:13,2015-04-03 10:23:13,<NULL>,<NULL>,<NULL>,<NULL>,<NULL>
1794,minicart.savedraft.success,Your order has been saved as a draft and can be retrieved from the Order Summary page,คำสั่งซื้อของท่านได้รับการบันทึกเป็นร่างคำสั่งซื้อและสามารถที่จะถูกดึงขึ้นมาได้จากหน้าสรุปคำสั่งซื้อ,<NULL>,base,2015-04-03 10:23:13,2015-04-03 10:23:13,<NULL>,<NULL>,<NULL>,<NULL>,<NULL>
1795,minicart.shipto,Ship-to,รหัสสถานที่จัดส่ง,<NULL>,base,2015-04-03 10:23:13,2015-04-03 10:23:13,<NULL>,<NULL>,<NULL>,<NULL>,<NULL>
1796,minicart.soldto,Sold-to,รหัสบัญชีลูกค้า,<NULL>,base,2015-04-03 10:23:13,2015-04-03 10:23:13,<NULL>,<NULL>,<NULL>,<NULL>,<NULL>
1797,minicart.vieworder,View order,ดูคำสั่งซื้อ,<NULL>,base,2015-04-03 10:23:13,2015-04-03 10:23:13,<NULL>,<NULL>,<NULL>,<NULL>,<NULL>
1798,myaccount.listsecondaryuserspage.email,Email,อีเมล์,<NULL>,base,2015-04-03 10:23:13,2015-04-03 10:23:13,<NULL>,<NULL>,<NULL>,<NULL>,<NULL>
1799,myaccount.listsecondaryuserspage.filter,"Search User ID, email, etc.",ค้นหาชื่อผู้ใช้  อีเมล์  ฯลฯ,<NULL>,base,2015-04-03 10:23:13,2015-04-03 10:23:13,<NULL>,<NULL>,<NULL>,<NULL>,<NULL>
1800,myaccount.listsecondaryuserspage.firstName,Name,ชื่อ นามสกุล,<NULL>,base,2015-04-03 10:23:13,2015-04-03 10:23:13,<NULL>,<NULL>,<NULL>,<NULL>,<NULL>
1801,myaccount.listsecondaryuserspage.heading,Active Secondary Users,บัญชีลูกค้า,<NULL>,base,2015-04-03 10:23:13,2015-04-03 10:23:13,<NULL>,<NULL>,<NULL>,<NULL>,<NULL>
1802,myaccount.listsecondaryuserspage.pendingUser,Pending secondary users,ผู้ใช้รองที่ยังอยู่ระหว่างการดำเนินการ,<NULL>,base,2015-04-03 10:23:13,2015-04-03 10:23:13,<NULL>,<NULL>,<NULL>,<NULL>,<NULL>
1803,myaccount.listsecondaryuserspage.phoneNumber,Phone number,เบอร์โทรศัพท์,<NULL>,base,2015-04-03 10:23:13,2015-04-03 10:23:13,<NULL>,<NULL>,<NULL>,<NULL>,<NULL>
1804,myaccount.listsecondaryuserspage.registersecondaryuser,Register secondary user,ลงทะเบียนบัญชีลูกค้ารอง,<NULL>,base,2015-04-03 10:23:13,2015-04-03 10:23:13,<NULL>,<NULL>,<NULL>,<NULL>,<NULL>
1805,myaccount.listsecondaryuserspage.search,"Search User ID, email, etc.",ค้นหาชื่อผู้ใช้  อีเมล์  ฯลฯ,<NULL>,base,2015-04-03 10:23:13,2015-04-03 10:23:13,<NULL>,<NULL>,<NULL>,<NULL>,<NULL>
1806,myaccount.listsecondaryuserspage.user,User ID,ชื่อลูกค้า,<NULL>,base,2015-04-03 10:23:13,2015-04-03 10:23:13,<NULL>,<NULL>,<NULL>,<NULL>,<NULL>
1807,myaccount.listsecondaryuserspage.username,User ID,ชื่อลูกค้า,<NULL>,base,2015-04-03 10:23:13,2015-04-03 10:23:13,<NULL>,<NULL>,<NULL>,<NULL>,<NULL>
1808,myaccount.secondaryuserdetailspage.access,Access,การขอเข้าระบบ,<NULL>,base,2015-04-03 10:23:13,2015-04-03 10:23:13,<NULL>,<NULL>,<NULL>,<NULL>,<NULL>
1809,myaccount.secondaryuserdetailspage.access.addallshiptos,Add all Ship-tos,เพิ่มรหัสของสถานที่จัดส่งทั้งหมด,<NULL>,base,2015-04-03 10:23:13,2015-04-03 10:23:13,<NULL>,<NULL>,<NULL>,<NULL>,<NULL>
1810,myaccount.secondaryuserdetailspage.access.addsoldto,Add Sold-to,ใส่รหัสบัญชี,<NULL>,base,2015-04-03 10:23:13,2015-04-03 10:23:13,<NULL>,<NULL>,<NULL>,<NULL>,<NULL>
1811,myaccount.secondaryuserdetailspage.access.clear,Clear,เคลียร์,<NULL>,base,2015-04-03 10:23:13,2015-04-03 10:23:13,<NULL>,<NULL>,<NULL>,<NULL>,<NULL>
1812,myaccount.secondaryuserdetailspage.access.nofilter,You did not select any criteria by which to filter,ท่านไม่ได้เลือกค่าใดๆที่ต้องใช้ในการตั้งค่าตัวกรอง,<NULL>,base,2015-04-03 10:23:13,2015-04-03 10:23:13,<NULL>,<NULL>,<NULL>,<NULL>,<NULL>
1813,myaccount.secondaryuserdetailspage.access.remove,Remove,ลบออก,<NULL>,base,2015-04-03 10:23:13,2015-04-03 10:23:13,<NULL>,<NULL>,<NULL>,<NULL>,<NULL>
1814,myaccount.secondaryuserdetailspage.access.removesoldto,Remove Sold-to,ลบรหัสบัญชี,<NULL>,base,2015-04-03 10:23:13,2015-04-03 10:23:13,<NULL>,<NULL>,<NULL>,<NULL>,<NULL>
1815,myaccount.secondaryuserdetailspage.access.secondaryuser,Secondary User,ผู้ใช้สำรอง,<NULL>,base,2015-04-03 10:23:13,2015-04-03 10:23:13,<NULL>,<NULL>,<NULL>,<NULL>,<NULL>
1816,myaccount.secondaryuserdetailspage.access.selectshiptos,Select Ship-tos ({0}),เลือกรหัสจัดส่ง ({0}),<NULL>,base,2015-04-03 10:23:13,2015-04-03 10:23:13,<NULL>,<NULL>,<NULL>,<NULL>,<NULL>
1817,myaccount.secondaryuserdetailspage.access.shiptosintotal,Total count of Ship-to(s),รหัสจัดส่งทั้งหมด,<NULL>,base,2015-04-03 10:23:13,2015-04-03 10:23:13,<NULL>,<NULL>,<NULL>,<NULL>,<NULL>
1818,myaccount.secondaryuserdetailspage.access.soldtoaccess,Sold-to access,การเข้าสู่รหัสบัญชีลูกค้า,<NULL>,base,2015-04-03 10:23:13,2015-04-03 10:23:13,<NULL>,<NULL>,<NULL>,<NULL>,<NULL>
1819,myaccount.secondaryuserdetailspage.access.undo,Undo,แก้ไขย้อนกลับ,<NULL>,base,2015-04-03 10:23:13,2015-04-03 10:23:13,<NULL>,<NULL>,<NULL>,<NULL>,<NULL>
1820,myaccount.secondaryuserdetailspage.accessform.cancel,Cancel,ยกเลิก,<NULL>,base,2015-04-03 10:23:13,2015-04-03 10:23:13,<NULL>,<NULL>,<NULL>,<NULL>,<NULL>
1821,myaccount.secondaryuserdetailspage.accessform.save,Save,บันทึก,<NULL>,base,2015-04-03 10:23:13,2015-04-03 10:23:13,<NULL>,<NULL>,<NULL>,<NULL>,<NULL>
1822,myaccount.secondaryuserdetailspage.accounts,Accounts,บัญชี,<NULL>,base,2015-04-03 10:23:13,2015-04-03 10:23:13,<NULL>,<NULL>,<NULL>,<NULL>,<NULL>
1823,myaccount.secondaryuserdetailspage.additionalaccess,Access to other ExxonMobil systems,การขอเพิ่มระบบเพื่อใช้งาน,<NULL>,base,2015-04-03 10:23:13,2015-04-03 10:23:13,<NULL>,<NULL>,<NULL>,<NULL>,<NULL>
1824,myaccount.secondaryuserdetailspage.additionalaccess.dnet,DNET,DNET,<NULL>,base,2015-04-03 10:23:13,2015-04-03 10:23:13,<NULL>,<NULL>,<NULL>,<NULL>,<NULL>
1825,myaccount.secondaryuserdetailspage.additionalaccess.signum,Signum,Signum,<NULL>,base,2015-04-03 10:23:13,2015-04-03 10:23:13,<NULL>,<NULL>,<NULL>,<NULL>,<NULL>
1826,myaccount.secondaryuserdetailspage.delete.cancel,Cancel,ยกเลิก,<NULL>,base,2015-04-03 10:23:13,2015-04-03 10:23:13,<NULL>,<NULL>,<NULL>,<NULL>,<NULL>
1827,myaccount.secondaryuserdetailspage.delete.cancelmessage,Cancelling will return you to the selected user,ยกเลิกเพื่อที่จะกับสู่ผู้ใช้ที่ได้ถูกเลือกไว้ก่อนหน้า,<NULL>,base,2015-04-03 10:23:13,2015-04-03 10:23:13,<NULL>,<NULL>,<NULL>,<NULL>,<NULL>
1828,myaccount.secondaryuserdetailspage.delete.confirm,Confirm,ยืนยัน,<NULL>,base,2015-04-03 10:23:13,2015-04-03 10:23:13,<NULL>,<NULL>,<NULL>,<NULL>,<NULL>
1829,myaccount.secondaryuserdetailspage.delete.confirmmessage,Please confirm your request to delete this user,กรุณายืนยันการร้องขอในการลบผู้ใช้นี้,<NULL>,base,2015-04-03 10:23:13,2015-04-03 10:23:13,<NULL>,<NULL>,<NULL>,<NULL>,<NULL>
1830,myaccount.secondaryuserdetailspage.deletesecid,Delete Secondary User,ลบรหัสผู้ใช้รอง,<NULL>,base,2015-04-03 10:23:13,2015-04-03 10:23:13,<NULL>,<NULL>,<NULL>,<NULL>,<NULL>
1831,myaccount.secondaryuserdetailspage.eventnotifications,Event notifications,เอกสารยืนยัน,<NULL>,base,2015-04-03 10:23:13,2015-04-03 10:23:13,<NULL>,<NULL>,<NULL>,<NULL>,<NULL>
1832,myaccount.secondaryuserdetailspage.generalinformation,General information,ข้อมูลข่าวสารทั่วไป,<NULL>,base,2015-04-03 10:23:13,2015-04-03 10:23:13,<NULL>,<NULL>,<NULL>,<NULL>,<NULL>
1833,myaccount.secondaryuserdetailspage.generalinformation.country,Country,ประเทศ,<NULL>,base,2015-04-03 10:23:13,2015-04-03 10:23:13,<NULL>,<NULL>,<NULL>,<NULL>,<NULL>
1834,myaccount.secondaryuserdetailspage.generalinformation.email,Email,อีเมล์,<NULL>,base,2015-04-03 10:23:13,2015-04-03 10:23:13,<NULL>,<NULL>,<NULL>,<NULL>,<NULL>
1835,myaccount.secondaryuserdetailspage.generalinformation.name,Name,ชื่อ นามสกุล,<NULL>,base,2015-04-03 10:23:13,2015-04-03 10:23:13,<NULL>,<NULL>,<NULL>,<NULL>,<NULL>
1836,myaccount.secondaryuserdetailspage.generalinformation.phonenumber,Phone number,เบอร์โทรศัพท์,<NULL>,base,2015-04-03 10:23:13,2015-04-03 10:23:13,<NULL>,<NULL>,<NULL>,<NULL>,<NULL>
1837,myaccount.secondaryuserdetailspage.generalinformation.username,User ID,ชื่อลูกค้า,<NULL>,base,2015-04-03 10:23:13,2015-04-03 10:23:13,<NULL>,<NULL>,<NULL>,<NULL>,<NULL>
1838,myaccount.secondaryuserdetailspage.heading,User profile,บัญชีของฉัน,<NULL>,base,2015-04-03 10:23:13,2015-04-03 10:23:13,<NULL>,<NULL>,<NULL>,<NULL>,<NULL>
1839,myaccount.secondaryuserdetailspage.privileges,Privileges,ผู้ใช้สามารถ (โปรดเลือก),<NULL>,base,2015-04-03 10:23:13,2015-04-03 10:23:13,<NULL>,<NULL>,<NULL>,<NULL>,<NULL>
1840,myaccount.secondaryuserdetailspage.privileges.createorders,Create order,สร้างคำสั่งซื้อ,<NULL>,base,2015-04-03 10:23:13,2015-04-03 10:23:13,<NULL>,<NULL>,<NULL>,<NULL>,<NULL>
1841,myaccount.secondaryuserdetailspage.privileges.error,An error occurred while updating user privileges,เกิดข้อผิดพลาดขณะทำการปรับปรุงสิทธิของผู้ใช้,<NULL>,base,2015-04-03 10:23:13,2015-04-03 10:23:13,<NULL>,<NULL>,<NULL>,<NULL>,<NULL>
1842,myaccount.secondaryuserdetailspage.privileges.success,User groups have been updated,กลุ่มของผู้ใช้งานระบบได้รับการปรับปรุง,<NULL>,base,2015-04-03 10:23:13,2015-04-03 10:23:13,<NULL>,<NULL>,<NULL>,<NULL>,<NULL>
1843,myaccount.secondaryuserdetailspage.privileges.viewInvoice,View Invoice,ดู ใบแจ้งหนี้,<NULL>,base,2015-04-03 10:23:13,2015-04-03 10:23:13,<NULL>,<NULL>,<NULL>,<NULL>,<NULL>
1844,myaccount.secondaryuserdetailspage.privileges.vieworders,View orders,ดูคำสั่งซื้อ,<NULL>,base,2015-04-03 10:23:13,2015-04-03 10:23:13,<NULL>,<NULL>,<NULL>,<NULL>,<NULL>
1845,myaccount.secondaryuserdetailspage.privileges.viewPayment,View Payment,ดู วิธีการชำระเงิน,<NULL>,base,2015-04-03 10:23:13,2015-04-03 10:23:13,<NULL>,<NULL>,<NULL>,<NULL>,<NULL>
1846,myaccount.secondaryuserdetailspage.privileges.viewpricing,View pricing,ดูรายละเอียดราคา,<NULL>,base,2015-04-03 10:23:13,2015-04-03 10:23:13,<NULL>,<NULL>,<NULL>,<NULL>,<NULL>
1847,myaccount.secondaryuserdetailspage.removeuser,Remove user,ลบผู้ใช้,<NULL>,base,2015-04-03 10:23:13,2015-04-03 10:23:13,<NULL>,<NULL>,<NULL>,<NULL>,<NULL>
1848,myaccount.secondaryuserdetailspage.secondaryUserAccessForm.error,Unable to save changes. Please contact customer service.,ไม่สามารถบันทึกการเปลี่ยนแปลงได้ กรุณาติดต่อฝ่ายบริการลูกค้า,<NULL>,base,2015-04-03 10:23:13,2015-04-03 10:23:13,<NULL>,<NULL>,<NULL>,<NULL>,<NULL>
1849,myaccount.secondaryuserdetailspage.secondaryUserAccessForm.shipIo,Ship-to,รหัสสถานที่จัดส่ง,<NULL>,base,2015-04-03 10:23:13,2015-04-03 10:23:13,<NULL>,<NULL>,<NULL>,<NULL>,<NULL>
1850,myaccount.secondaryuserdetailspage.secondaryUserAccessForm.success,User details saved,รายละเอียดของผู้ใช้ได้รับการบันทึก,<NULL>,base,2015-04-03 10:23:13,2015-04-03 10:23:13,<NULL>,<NULL>,<NULL>,<NULL>,<NULL>
1851,myaccount.secondaryuserdetailspage.shipto.error,An error occurred while updating Ship-to access,เกิดข้อผิดพลาดขณะทำการปรับปรุงข้อมูลการเข้าถึงของรหัสสถานที่จัดส่ง,<NULL>,base,2015-04-03 10:23:13,2015-04-03 10:23:13,<NULL>,<NULL>,<NULL>,<NULL>,<NULL>
1852,myaccount.secondaryuserdetailspage.shipto.success,Ship-to access has been updated,การเข้าถึงของรหัสสถานที่จัดส่งได้ถูกปรับปรุงแล้ว,<NULL>,base,2015-04-03 10:23:13,2015-04-03 10:23:13,<NULL>,<NULL>,<NULL>,<NULL>,<NULL>
1853,order.acknowledge.billingblock,Billing block,การเรียกเก็บเงินถูกระงับชั่วคราว,<NULL>,base,2015-04-03 10:23:13,2015-04-03 10:23:13,<NULL>,<NULL>,<NULL>,<NULL>,<NULL>
1854,order.acknowledge.cancelmsg,There are items in this order,ยังมีรายการสินค้าอยู่ในคำสั่งซื้อ,<NULL>,base,2015-04-03 10:23:13,2015-04-03 10:23:13,<NULL>,<NULL>,<NULL>,<NULL>,<NULL>
1855,order.acknowledge.cancelmsg1,Cancel,ยกเลิก,<NULL>,base,2015-04-03 10:23:13,2015-04-03 10:23:13,<NULL>,<NULL>,<NULL>,<NULL>,<NULL>
1856,order.acknowledge.cancelmsg2,Are you sure you want to cancel your order?,ท่านต้องการยกเลิกคำสั่งซื้อของท่านใช่หรือไม่?,<NULL>,base,2015-04-03 10:23:13,2015-04-03 10:23:13,<NULL>,<NULL>,<NULL>,<NULL>,<NULL>
1857,order.acknowledge.cancelorder,Cancel order,ยกเลิกคำสั่งซื้อ,<NULL>,base,2015-04-03 10:23:13,2015-04-03 10:23:13,<NULL>,<NULL>,<NULL>,<NULL>,<NULL>
1858,order.acknowledge.confirm,Confirm,ยืนยัน,<NULL>,base,2015-04-03 10:23:13,2015-04-03 10:23:13,<NULL>,<NULL>,<NULL>,<NULL>,<NULL>
1859,order.acknowledge.createneworder,Create new order,สร้างคำสั่งซื้อใหม่,<NULL>,base,2015-04-03 10:23:13,2015-04-03 10:23:13,<NULL>,<NULL>,<NULL>,<NULL>,<NULL>
1860,order.acknowledge.creates,Created,สร้างเสร็จแล้ว,<NULL>,base,2015-04-03 10:23:13,2015-04-03 10:23:13,<NULL>,<NULL>,<NULL>,<NULL>,<NULL>
1861,order.acknowledge.cutofftime,Cut-off time,กำหนดเวลาในการรับใบสั่งซื้อ ,<NULL>,base,2015-04-03 10:23:13,2015-04-03 10:23:13,<NULL>,<NULL>,<NULL>,<NULL>,<NULL>
1862,order.acknowledge.del,Delivery,จัดส่ง,<NULL>,base,2015-04-03 10:23:13,2015-04-03 10:23:13,<NULL>,<NULL>,<NULL>,<NULL>,<NULL>
1863,order.acknowledge.delitems,Delivery items,จัดส่ง,<NULL>,base,2015-04-03 10:23:13,2015-04-03 10:23:13,<NULL>,<NULL>,<NULL>,<NULL>,<NULL>
1864,order.acknowledge.delivery,Delivery,จัดส่ง,<NULL>,base,2015-04-03 10:23:13,2015-04-03 10:23:13,<NULL>,<NULL>,<NULL>,<NULL>,<NULL>
1865,order.acknowledge.deliveryblock,Delivery block,การส่งมอบสินค้าถูกระงับชั่วคราว,<NULL>,base,2015-04-03 10:23:13,2015-04-03 10:23:13,<NULL>,<NULL>,<NULL>,<NULL>,<NULL>
1866,order.acknowledge.deliverydate,Delivery date,วันที่จัดส่งสินค้า,<NULL>,base,2015-04-03 10:23:13,2015-04-03 10:23:13,<NULL>,<NULL>,<NULL>,<NULL>,<NULL>
1867,order.acknowledge.details,Details,รายละเอียด,<NULL>,base,2015-04-03 10:23:13,2015-04-03 10:23:13,<NULL>,<NULL>,<NULL>,<NULL>,<NULL>
1868,order.acknowledge.downloaddelnote,Download delivery note,ดาวน์โหลดใบกำกับการขนส่ง,<NULL>,base,2015-04-03 10:23:13,2015-04-03 10:23:13,<NULL>,<NULL>,<NULL>,<NULL>,<NULL>
1869,order.acknowledge.editorder,Edit order,แก้ไขคำสั่งซื้อ,<NULL>,base,2015-04-03 10:23:13,2015-04-03 10:23:13,<NULL>,<NULL>,<NULL>,<NULL>,<NULL>
1870,order.acknowledge.emergencyorder,Emergency order,คำสั่งซื้อฉุกเฉิน,<NULL>,base,2015-04-03 10:23:13,2015-04-03 10:23:13,<NULL>,<NULL>,<NULL>,<NULL>,<NULL>
1871,order.acknowledge.estimatedeldate,Estimated delivery date,ประเมินวันที่จะส่งมอบได้,<NULL>,base,2015-04-03 10:23:13,2015-04-03 10:23:13,<NULL>,<NULL>,<NULL>,<NULL>,<NULL>
1872,order.acknowledge.estimatedtotal,Estimated total,จำนวนเงินทั้งหมดโดยประมาณ,<NULL>,base,2015-04-03 10:23:13,2015-04-03 10:23:13,<NULL>,<NULL>,<NULL>,<NULL>,<NULL>
1873,order.acknowledge.items,Items,จำนวนรายการ,<NULL>,base,2015-04-03 10:23:13,2015-04-03 10:23:13,<NULL>,<NULL>,<NULL>,<NULL>,<NULL>
1874,order.acknowledge.kilograms,Kilograms,กิโลกรัม,<NULL>,base,2015-04-03 10:23:13,2015-04-03 10:23:13,<NULL>,<NULL>,<NULL>,<NULL>,<NULL>
1875,order.acknowledge.litres,Liters,ลิตร,<NULL>,base,2015-04-03 10:23:13,2015-04-03 10:23:13,<NULL>,<NULL>,<NULL>,<NULL>,<NULL>
1876,order.acknowledge.menu,Menu,เมนู,<NULL>,base,2015-04-03 10:23:13,2015-04-03 10:23:13,<NULL>,<NULL>,<NULL>,<NULL>,<NULL>
1877,order.acknowledge.na,Not applicable,ไม่สามารถใช้ได้,<NULL>,base,2015-04-03 10:23:13,2015-04-03 10:23:13,<NULL>,<NULL>,<NULL>,<NULL>,<NULL>
1878,order.acknowledge.orderdetails,Order details,รายละเอียดของคำสั่งซื้อ,<NULL>,base,2015-04-03 10:23:13,2015-04-03 10:23:13,<NULL>,<NULL>,<NULL>,<NULL>,<NULL>
1879,order.acknowledge.orders,Orders,คำสั่งซื้อ,<NULL>,base,2015-04-03 10:23:13,2015-04-03 10:23:13,<NULL>,<NULL>,<NULL>,<NULL>,<NULL>
1880,order.acknowledge.po,Purchase Order,คำสั่งซื้อ,<NULL>,base,2015-04-03 10:23:13,2015-04-03 10:23:13,<NULL>,<NULL>,<NULL>,<NULL>,<NULL>
1881,order.acknowledge.print,Print,พิมพ์,<NULL>,base,2015-04-03 10:23:13,2015-04-03 10:23:13,<NULL>,<NULL>,<NULL>,<NULL>,<NULL>
1882,order.acknowledge.reference,Reference,การอ้างอิง,<NULL>,base,2015-04-03 10:23:13,2015-04-03 10:23:13,<NULL>,<NULL>,<NULL>,<NULL>,<NULL>
1883,order.acknowledge.replicateorder,Replicate order,ทำสำเนาคำสั่งซื้อ,<NULL>,base,2015-04-03 10:23:13,2015-04-03 10:23:13,<NULL>,<NULL>,<NULL>,<NULL>,<NULL>
1884,order.acknowledge.reqdeldate,Requested delivery date,วันที่ต้องการให้จัดส่ง,<NULL>,base,2015-04-03 10:23:13,2015-04-03 10:23:13,<NULL>,<NULL>,<NULL>,<NULL>,<NULL>
1885,order.acknowledge.saleshaulierins,Haulier Instructions,ใส่ทะเบียนรถและผู้รับในการรับสินค้า,<NULL>,base,2015-04-03 10:23:13,2015-04-03 10:23:13,<NULL>,<NULL>,<NULL>,<NULL>,<NULL>
1886,order.acknowledge.shippinginstructions,Shipping instructions,คำแนะนำสำหรับการจัดส่ง,<NULL>,base,2015-04-03 10:23:13,2015-04-03 10:23:13,<NULL>,<NULL>,<NULL>,<NULL>,<NULL>
1887,order.acknowledge.shippingtype,Shipping Method,วิธีการจัดส่งสินค้า,<NULL>,base,2015-04-03 10:23:13,2015-04-03 10:23:13,<NULL>,<NULL>,<NULL>,<NULL>,<NULL>
1888,order.acknowledge.shiptoaccount,Ship-to account,รหัสจัดส่ง,<NULL>,base,2015-04-03 10:23:13,2015-04-03 10:23:13,<NULL>,<NULL>,<NULL>,<NULL>,<NULL>
1889,order.acknowledge.shiptoaddress,Ship-to address,รหัสจัดส่ง,<NULL>,base,2015-04-03 10:23:13,2015-04-03 10:23:13,<NULL>,<NULL>,<NULL>,<NULL>,<NULL>
1890,order.acknowledge.status,Status,สถานะ,<NULL>,base,2015-04-03 10:23:13,2015-04-03 10:23:13,<NULL>,<NULL>,<NULL>,<NULL>,<NULL>
1891,order.acknowledge.success,Order <strong>{0}</strong> has been submitted successfully.,คำสั่งซื้อ <strong>{0}</strong> ถูกจัดส่งเรียบร้อยแล้ว,<NULL>,base,2015-04-03 10:23:13,2015-04-03 10:23:13,<NULL>,<NULL>,<NULL>,<NULL>,<NULL>
1892,order.acknowledge.taxes,Taxes,ภาษี,<NULL>,base,2015-04-03 10:23:13,2015-04-03 10:23:13,<NULL>,<NULL>,<NULL>,<NULL>,<NULL>
1893,order.acknowledge.totalvolume,Total volume,ปริมาณรวม,<NULL>,base,2015-04-03 10:23:13,2015-04-03 10:23:13,<NULL>,<NULL>,<NULL>,<NULL>,<NULL>
1894,order.acknowledge.totalweight,Total weight,น้ำหนักรวม,<NULL>,base,2015-04-03 10:23:13,2015-04-03 10:23:13,<NULL>,<NULL>,<NULL>,<NULL>,<NULL>
1895,order.acknowledge.view,View,ดูรายละเอียด,<NULL>,base,2015-04-03 10:23:13,2015-04-03 10:23:13,<NULL>,<NULL>,<NULL>,<NULL>,<NULL>
1896,order.acknowledge.xomnotes,XOM Notes,บันทึกภายในของXOM,<NULL>,base,2015-04-03 10:23:13,2015-04-03 10:23:13,<NULL>,<NULL>,<NULL>,<NULL>,<NULL>
1897,order.cancel.message,Order cancelled,คำสั่งซื้อได้ยกเลิกแล้ว,<NULL>,base,2015-04-03 10:23:13,2015-04-03 10:23:13,<NULL>,<NULL>,<NULL>,<NULL>,<NULL>
1898,order.cancel.success,Your order has been successfully cancelled,คำสั่งซื้อของท่านได้ถูกยกเลิกแล้ว,<NULL>,base,2015-04-03 10:23:13,2015-04-03 10:23:13,<NULL>,<NULL>,<NULL>,<NULL>,<NULL>
1899,order.link.orderhistory,View order history,ดูคำสั่งซื้อในอดีต,<NULL>,base,2015-04-03 10:23:13,2015-04-03 10:23:13,<NULL>,<NULL>,<NULL>,<NULL>,<NULL>
1900,order.template.details.error,You are not authorized to view this template,ท่านไม่ได้รับอนุญาติให้ดูแม่แบบนี้,<NULL>,base,2015-04-03 10:23:13,2015-04-03 10:23:13,<NULL>,<NULL>,<NULL>,<NULL>,<NULL>
1901,order.template.maxnumber.error,You cannot maintain more than 10 templates,ท่านไม่สามารถเก็บแม่แบบได้เกินกว่า 10 แม่แบบ,<NULL>,base,2015-04-03 10:23:13,2015-04-03 10:23:13,<NULL>,<NULL>,<NULL>,<NULL>,<NULL>
1902,order.tooltip.createdOn,Date order was originally placed,วันที่ของวันแรกที่ทำการสั่งซื้อสินค้า,<NULL>,base,2015-04-03 10:23:13,2015-04-03 10:23:13,<NULL>,<NULL>,<NULL>,<NULL>,<NULL>
1903,order.tooltip.estimatedPrice,Estimated price at the time of original submission,ประมาณการราคาของคำสั่งซื้อสินค้าทั้งหมด ณ วันที่ทำการสั่งซื้อ,<NULL>,base,2015-04-03 10:23:13,2015-04-03 10:23:13,<NULL>,<NULL>,<NULL>,<NULL>,<NULL>
1904,order.tooltip.fromToFilter,Date range within the last 13 months,วันใดก็ได้ที่ไม่เกินกว่า13เดือนก่อน,<NULL>,base,2015-04-03 10:23:13,2015-04-03 10:23:13,<NULL>,<NULL>,<NULL>,<NULL>,<NULL>
1905,order.tooltip.haulierInstructions,Please contact Customer Service to make changes to these instructions,กรุณาติดต่อฝ่ายบริการลูกค้าเพื่อที่จะทำการเปลี่ยนแปลงคำสั่งเหล่านี้,<NULL>,base,2015-04-03 10:23:13,2015-04-03 10:23:13,<NULL>,<NULL>,<NULL>,<NULL>,<NULL>
1906,order.tooltip.monthFilter,Current month,เดือนปัจจุบัน,<NULL>,base,2015-04-03 10:23:13,2015-04-03 10:23:13,<NULL>,<NULL>,<NULL>,<NULL>,<NULL>
1907,order.tooltip.orderStatus,Current status of the order,สถานะ,<NULL>,base,2015-04-03 10:23:13,2015-04-03 10:23:13,<NULL>,<NULL>,<NULL>,<NULL>,<NULL>
1908,order.tooltip.plant,Plant from which the product is ordered,คลังสินค้าที่สินค้าถูกจัดส่ง,<NULL>,base,2015-04-03 10:23:13,2015-04-03 10:23:13,<NULL>,<NULL>,<NULL>,<NULL>,<NULL>
1909,order.tooltip.shipToFilter,Filter can be based on a specific Ship-to,ตั้งค่าตัวกรองสามารถขึ้นอยู่กับรหัสของสถานที่จัดส่งหนึ่งๆ,<NULL>,base,2015-04-03 10:23:13,2015-04-03 10:23:13,<NULL>,<NULL>,<NULL>,<NULL>,<NULL>
1910,order.tooltip.status,Selection based on the current status,การเลือกขึ้นอยู่กับสถานะในปัจจุบัน,<NULL>,base,2015-04-03 10:23:13,2015-04-03 10:23:13,<NULL>,<NULL>,<NULL>,<NULL>,<NULL>
1911,order.tooltip.volume,Total volume of the order,ปริมาณรวมของคำสั่งซื้อ,<NULL>,base,2015-04-03 10:23:13,2015-04-03 10:23:13,<NULL>,<NULL>,<NULL>,<NULL>,<NULL>
1912,order.tooltip.weekFilter,Sunday through Saturday,วันอาทิตย์ถึงวันเสาร์,<NULL>,base,2015-04-03 10:23:13,2015-04-03 10:23:13,<NULL>,<NULL>,<NULL>,<NULL>,<NULL>
1913,order.tooltip.weight,Total weight of the order ,น้ำหนักรวมของสินค้าในคำสั่งซื้อทั้งหมด,<NULL>,base,2015-04-03 10:23:13,2015-04-03 10:23:13,<NULL>,<NULL>,<NULL>,<NULL>,<NULL>
1914,orders.1month,1 month,1 เดือน,<NULL>,base,2015-04-03 10:23:13,2015-04-03 10:23:13,<NULL>,<NULL>,<NULL>,<NULL>,<NULL>
1915,orders.1week,1 week,1 อาทิตย์,<NULL>,base,2015-04-03 10:23:13,2015-04-03 10:23:13,<NULL>,<NULL>,<NULL>,<NULL>,<NULL>
1916,orders.3months,3 months,3 เดือน,<NULL>,base,2015-04-03 10:23:13,2015-04-03 10:23:13,<NULL>,<NULL>,<NULL>,<NULL>,<NULL>
1917,orders.acknowledge.ordersubmitted,Order submitted,คำสั่งที่ดำเนินการแล้ว,<NULL>,base,2015-04-03 10:23:13,2015-04-03 10:23:13,<NULL>,<NULL>,<NULL>,<NULL>,<NULL>
1918,orders.ago,ago,ก่อนหน้า,<NULL>,base,2015-04-03 10:23:13,2015-04-03 10:23:13,<NULL>,<NULL>,<NULL>,<NULL>,<NULL>
1919,orders.bulk,Bulk,Bulk,<NULL>,base,2015-04-03 10:23:13,2015-04-03 10:23:13,<NULL>,<NULL>,<NULL>,<NULL>,<NULL>
1920,orders.cancelmsg,Order successfully cancelled,คำสั่งซื้อถูกยกเลิกเรียบร้อยแล้ว,<NULL>,base,2015-04-03 10:23:13,2015-04-03 10:23:13,<NULL>,<NULL>,<NULL>,<NULL>,<NULL>
1921,orders.cartpage.addfromcatalog,Add from catalog,เพิ่มรายการ,<NULL>,base,2015-04-03 10:23:13,2015-04-03 10:23:13,<NULL>,<NULL>,<NULL>,<NULL>,<NULL>
1922,orders.cartpage.billingblock,Billing block,การเรียกเก็บเงินถูกระงับชั่วคราว,<NULL>,base,2015-04-03 10:23:13,2015-04-03 10:23:13,<NULL>,<NULL>,<NULL>,<NULL>,<NULL>
1923,orders.cartpage.cancel,Cancel,ยกเลิก,<NULL>,base,2015-04-03 10:23:13,2015-04-03 10:23:13,<NULL>,<NULL>,<NULL>,<NULL>,<NULL>
1924,orders.cartpage.cancellineitem,Cancel line item,ยกเลิกรายการสินค้าในคำสั่งซื้อ,<NULL>,base,2015-04-03 10:23:13,2015-04-03 10:23:13,<NULL>,<NULL>,<NULL>,<NULL>,<NULL>
1925,orders.cartpage.cancellineitemoverlay.confirm,Are you sure you want to cancel the line item?,ท่านต้องการยกเลิกรายการในคำสั่งซื้อของท่านใช่หรือไม่?,<NULL>,base,2015-04-03 10:23:13,2015-04-03 10:23:13,<NULL>,<NULL>,<NULL>,<NULL>,<NULL>
1926,orders.cartpage.cancellineitemoverlay.no,No,ไม่,<NULL>,base,2015-04-03 10:23:13,2015-04-03 10:23:13,<NULL>,<NULL>,<NULL>,<NULL>,<NULL>
1927,orders.cartpage.cancellineitemoverlay.yes,Yes,ใช่,<NULL>,base,2015-04-03 10:23:13,2015-04-03 10:23:13,<NULL>,<NULL>,<NULL>,<NULL>,<NULL>
1928,orders.cartpage.cancelorder,Discard order,ลบคำสั่งซื้อ,<NULL>,base,2015-04-03 10:23:13,2015-04-03 10:23:13,<NULL>,<NULL>,<NULL>,<NULL>,<NULL>
1929,orders.cartpage.cancelorder.success,Order successfully discarded,คำสั่งซื้อของท่านได้ถูกยกเลิกแล้ว,<NULL>,base,2015-04-03 10:23:13,2015-04-03 10:23:13,<NULL>,<NULL>,<NULL>,<NULL>,<NULL>
1930,orders.cartpage.canceloverlay.confirm,Do you want to discard this order?,ท่านต้องการที่จะละทิ้งคำสั่งซื้อนี้ใช้หรือไม่?,<NULL>,base,2015-04-03 10:23:13,2015-04-03 10:23:13,<NULL>,<NULL>,<NULL>,<NULL>,<NULL>
1931,orders.cartpage.canceloverlay.no,No,ไม่,<NULL>,base,2015-04-03 10:23:13,2015-04-03 10:23:13,<NULL>,<NULL>,<NULL>,<NULL>,<NULL>
1932,orders.cartpage.canceloverlay.yes,Yes,ใช่,<NULL>,base,2015-04-03 10:23:13,2015-04-03 10:23:13,<NULL>,<NULL>,<NULL>,<NULL>,<NULL>
1933,orders.cartpage.close,Close,ปิด,<NULL>,base,2015-04-03 10:23:13,2015-04-03 10:23:13,<NULL>,<NULL>,<NULL>,<NULL>,<NULL>
1934,orders.cartpage.createorder,Create order,สร้างคำสั่งซื้อ,<NULL>,base,2015-04-03 10:23:13,2015-04-03 10:23:13,<NULL>,<NULL>,<NULL>,<NULL>,<NULL>
1935,orders.cartpage.customerinformation,Customer information,ข้อมูลลูกค้า,<NULL>,base,2015-04-03 10:23:13,2015-04-03 10:23:13,<NULL>,<NULL>,<NULL>,<NULL>,<NULL>
1936,orders.cartpage.cutoff.after,The cut-off time for order changes has passed. Your Requested Delivery date will be adjusted.,คำร้องของท่านถูกดำเนินการหลังกำหนดเวลาในการรับใบสั่งซื้อ วันที่ต้องการให้จัดส่งของท่านจะถูกแก้ไขเป็นวันถัดไป,<NULL>,base,2015-04-03 10:23:13,2015-04-03 10:23:13,<NULL>,<NULL>,<NULL>,<NULL>,<NULL>
1937,orders.cartpage.date,Date,วัน,<NULL>,base,2015-04-03 10:23:13,2015-04-03 10:23:13,<NULL>,<NULL>,<NULL>,<NULL>,<NULL>
1938,orders.cartpage.datefilter,DD/MM/YY (Delivery date),DD/MM/YY (วันที่ทำการส่งมอบสินค้า),<NULL>,base,2015-04-03 10:23:13,2015-04-03 10:23:13,<NULL>,<NULL>,<NULL>,<NULL>,<NULL>
1939,orders.cartpage.delivery,Delivery,จัดส่ง,<NULL>,base,2015-04-03 10:23:13,2015-04-03 10:23:13,<NULL>,<NULL>,<NULL>,<NULL>,<NULL>
1940,orders.cartpage.deliveryblock,Delivery block,การส่งมอบสินค้าถูกระงับชั่วคราว,<NULL>,base,2015-04-03 10:23:13,2015-04-03 10:23:13,<NULL>,<NULL>,<NULL>,<NULL>,<NULL>
1941,orders.cartpage.deliveryinstructions,Delivery instructions,คำชี้แนะในการจัดส่ง,<NULL>,base,2015-04-03 10:23:13,2015-04-03 10:23:13,<NULL>,<NULL>,<NULL>,<NULL>,<NULL>
1942,orders.cartpage.dismiss,Dismiss,ยกเลิก,<NULL>,base,2015-04-03 10:23:13,2015-04-03 10:23:13,<NULL>,<NULL>,<NULL>,<NULL>,<NULL>
1943,orders.cartpage.editorder,Edit order,แก้ไขคำสั่งซื้อ,<NULL>,base,2015-04-03 10:23:13,2015-04-03 10:23:13,<NULL>,<NULL>,<NULL>,<NULL>,<NULL>
1944,orders.cartpage.emergencyorder,Emergency order,คำสั่งซื้อฉุกเฉิน,<NULL>,base,2015-04-03 10:23:13,2015-04-03 10:23:13,<NULL>,<NULL>,<NULL>,<NULL>,<NULL>
1945,orders.cartpage.entershiptofilter,"Enter Ship-to name, number, or address",กรุณาใส่ชื่อของสถานที่จัดส่งหรือรหัสของสถานที่จัดส่ง,<NULL>,base,2015-04-03 10:23:13,2015-04-03 10:23:13,<NULL>,<NULL>,<NULL>,<NULL>,<NULL>
1946,orders.cartpage.estimatedeldate,Estimated delivery date,ประเมินวันที่จะส่งมอบได้,<NULL>,base,2015-04-03 10:23:13,2015-04-03 10:23:13,<NULL>,<NULL>,<NULL>,<NULL>,<NULL>
1947,testing1,,,<NULL>,exxonmobilcore-locales,2015-04-03 10:33:21,2015-04-03 10:33:21,manohar001@gmail.com,manohar001@gmail.com,ab1,1,4
1948,testing2,value_testing2,เรือ,<NULL>,exxonmobilcore-locales,2015-04-03 10:33:21,2015-04-03 10:33:21,manohar001@gmail.com,,ab1,1,4
1949,testing50,testing 52 value,สามารถ edited,<NULL>,exxonmobilcore-locales,2015-04-06 08:26:14,2015-04-06 10:59:43,manohar001@gmail.com,manohar001@gmail.com,artifact1,1,4
1950,testing51,testing51 value,สามารถ,testing_51,exxonmobilcore-locales,2015-04-06 08:26:14,2015-04-06 10:59:43,manohar001@gmail.com,manohar001@gmail.com,artifact1,1,4
1951,sadfasd,<NULL>,<NULL>,<NULL>,<NULL>,2015-05-06 12:56:15,2015-05-06 12:56:15,manohar001@gmail.com,manohar001@gmail.com,asd,1,2
1952,testing0001,<NULL>,<NULL>,<NULL>,base,2015-05-06 15:12:23,2015-05-06 15:12:23,manohar001@gmail.com,manohar001@gmail.com,testing0001,1,1
1953,testing0002,<NULL>,<NULL>,<NULL>,base,2015-05-06 15:23:12,2015-05-06 15:23:12,manohar001@gmail.com,manohar001@gmail.com,testing0002,1,1
1954,testing0003,<NULL>,<NULL>,<NULL>,base,2015-05-06 16:45:38,2015-05-06 16:45:38,manohar001@gmail.com,manohar001@gmail.com,testing0003,1,1
1955,testing0004,testing0004_value,<NULL>,<NULL>,base,2015-05-07 06:55:31,2015-05-07 06:55:31,manohar001@gmail.com,manohar001@gmail.com,testing0004,1,1
1956,testing0005,value_testing0005,<NULL>,<NULL>,base,2015-05-07 06:59:00,2015-05-07 06:59:00,manohar001@gmail.com,manohar001@gmail.com,testing0005,1,2
1957,test00009,<NULL>,<NULL>,<NULL>,base,2015-05-07 16:02:16,2015-05-07 16:02:16,manohar001@gmail.com,manohar001@gmail.com,test00009,1,2
