property.property_key,property.value_en,property.value_th,property.file_name
"orders.cartpage.estimatedpickupdate","Estimated pickup date","ประเมินวันที่จะรับสินค้าได้","base"
"orders.cartpage.estimatedtotal","Estimated Total excluding VAT","จำนวนเงินทั้งหมดโดยประมาณ","base"
"orders.cartpage.haulierinstrcutions","Haulier instructions","ใส่ทะเบียนรถและผู้รับในการรับสินค้า","base"
"orders.cartpage.haulierinstructions","Haulier Instructions","ใส่ทะเบียนรถและผู้รับในการรับสินค้า","base"
"orders.cartpage.instructions","Enter instructions","กรุณาใส่คำสั่ง","base"
"orders.cartpage.instructions.label","instructions","คำร้องขอเพิ่มเติมในการ","base"
"orders.cartpage.invalidorder","Your order does not contain any valid line items. Click Yes to discard your changes; click No to continue editing your order.","ไม่มีรายการสินค้าในคำสั่งซื้อของท่าน โปรดกด ใช่ เพื่อที่จะยกเลิกการเปลี่ยนแปลงคำสั่งในปัจจุบันและไปที่หน้ารายระเอียดของคำสั่งซื้อ; โปรดกด ไม่ เพื่อที่จะแก้ไขคำสั่งซื้อของท่านต่อไป","base"
"orders.cartpage.invalidorder.header","Invalid order","คำสั่งซื้อไม่ถูกต้อง","base"
"orders.cartpage.invalidorder.no","No","ไม่","base"
"orders.cartpage.invalidorder.yes","Yes","ใช่","base"
"orders.cartpage.itemremoved","This item has been removed","รายการนี้ได้ถูกเอาออกแล้ว","base"
"orders.cartpage.items","Items","จำนวนรายการ","base"
"orders.cartpage.kilograms","Kilograms","กิโลกรัม","base"
"orders.cartpage.liters","Liters","ลิตร","base"
"orders.cartpage.materialfilter","Enter product name or number","ใส่ชื่อผลิตภัณฑ์ หรือหมายเลขผลิตภัณฑ์","base"
"orders.cartpage.nohaulierinstrcutions","No haulier instruction","ไม่มีคำแนะนำสำหรับผู้จัดส่ง","base"
"orders.cartpage.noproducts.error","Order must have at least one valid line item","คำสั่งซื้อต้องมีรายการที่ถูกต้องอย่างน้อยหนึ่งรายการ กรุณาเพิ่มรหัสรายการสินค้า","base"
"orders.cartpage.order","Order","คำสั่ง","base"
"orders.cartpage.orderdetails","Order details","รายละเอียดของคำสั่งซื้อ","base"
"orders.cartpage.orderrequirements","Order requirements","ความต้องการประกอบคำสั่งซื้อ","base"
"orders.cartpage.orderrequirementsoverlay.cancel","Cancel","ยกเลิก","base"
"orders.cartpage.orderrequirementsoverlay.edit","Edit","แก้ไข","base"
"orders.cartpage.orderrequirementsoverlay.packagingtype","Package type","ชนิดบรรจุภัณฑ์","base"
"orders.cartpage.orderrequirementsoverlay.packagingtype.bulk","Bulk","Bulk","base"
"orders.cartpage.orderrequirementsoverlay.packagingtype.pack","Pack","Pack","base"
"orders.cartpage.orderrequirementsoverlay.savechanges","Save changes","บันทึกการเปลี่ยนแปลง","base"
"orders.cartpage.orderrequirementsoverlay.shiptoaddress","Ship-to address","รหัสจัดส่ง","base"
"orders.cartpage.orderrequirementsoverlay.soldtoaddress","Sold-to address","รหัสบัญชี","base"
"orders.cartpage.orderrequirementsoverlay.startorder","Start order","เริ่มสร้างคำสั่งซื้อ","base"
"orders.cartpage.orderrequirementsoverlay.startyourorder","Start your order","เริ่มสร้างคำสั่งซื้อของคุณ","base"
"orders.cartpage.orderrequirementsoverlay.uploadorder","Upload order","อัปโหลดคำสั่งซื้อ","base"
"orders.cartpage.orderrequirementsoverlay.usetemplate","Use template","ใช้แม่แบบคำสั่งซื้อ","base"
"orders.cartpage.pickup","Pickup","รับเอง","base"
"orders.cartpage.pickupblock","Pickup block","การรับสินค้าถูกระงับชั่วคราว","base"
"orders.cartpage.pickupdate","DD/MM/YY (Pickup date)","DD/MM/YY (วันที่ทำการรับสินค้า)","base"
"orders.cartpage.pickupinstructions","Pickup instructions","ใส่ทะเบียนรถและผู้รับในการรับสินค้า","base"
"orders.cartpage.po","Purchase Order","คำสั่งซื้อ","base"
"orders.cartpage.po.error","Purchase Order number is mandatory","ต้องการใบสั่งซื้อ","base"
"orders.cartpage.pofilter","Enter Purchase Order number","ใส่หมายเลขใบสั่งซื้อ","base"
"orders.cartpage.pomandatory","Purchase Order number is mandatory","ต้องการใบสั่งซื้อ","base"
"orders.cartpage.ponumber","Purchase Order number","เลขที่ใบสั่งซื้อ","base"
"orders.cartpage.quantity.error","Quantity must be greater than 0","ประมาณต้องมากกว่าศูนย์","base"
"orders.cartpage.reference","Reference","การอ้างอิง","base"
"orders.cartpage.requested","Requested","คำร้องได้ถูกส่งไปแล้ว","base"
"orders.cartpage.requesteddeliveryddate","Requested delivery date","วันที่ต้องการให้จัดส่ง","base"
"orders.cartpage.requestedpickupdate","Requested pickup date","วันที่ต้องการรับสินค้า","base"
"orders.cartpage.saveasdraft","Save as draft","เก็บแบบร่างคำสั่งซื้อ","base"
"orders.cartpage.savedraft.success","Your order has been saved as a draft and can be retrieved from the Order Summary page","คำสั่งซื้อของท่านได้รับการบันทึกเป็นร่างคำสั่งซื้อและสามารถที่จะถูกดึงขึ้นมาได้จากหน้าสรุปคำสั่งซื้อ","base"
"orders.cartpage.savingdraft","Your order is being saved","คำสั่งซื้อของท่านกำลังถูกบันทึก","base"
"orders.cartpage.shippinginstructions","Shipping instructions","คำแนะนำสำหรับการจัดส่ง","base"
"orders.cartpage.shippingmethod","Shipping method","วิธีการจัดส่งสินค้า","base"
"orders.cartpage.shippingtype","Shipping Method","วิธีการจัดส่งสินค้า","base"
"orders.cartpage.shiptofilter","Filter by Ship-to name, number, address, etc.","ตั้งค่าตัวกรองโดยรหัสของสถานที่จัดส่ง","base"
"orders.cartpage.submitorder","Submit Order","ยืนยันคำสั่งซื้อ","base"
"orders.cartpage.totalvolume","Total volume","ปริมาณรวม","base"
"orders.cartpage.totalweight","Total weight","น้ำหนักรวม","base"
"orders.cartpage.undo","Undo","แก้ไขย้อนกลับ","base"
"orders.cartpage.validateorder","Validate order","ตรวจสอบความถูกต้องของคำสั่งซื้อ","base"
"orders.cartpage.xominstructions","XOM Notes","บันทึกภายในของXOM","base"
"orders.cartpage.xomnotes","XOM Notes","บันทึกภายในของXOM","base"
"orders.close","Close","ปิด","base"
"orders.createdon","Created on","สร้างเมื่อ","base"
"orders.createorder","Create order","สร้างคำสั่งซื้อ","base"
"orders.createtemplate","Create Template","สร้างแม่แบบคำสั่งซื้อ","base"
"orders.createtemplate.bulk","Bulk","Bulk","base"
"orders.createtemplate.cancel.no","No","ไม่","base"
"orders.createtemplate.cancel.yes","Yes","ใช่","base"
"orders.createtemplate.canceltemp","Cancel Template","ยกเลิก แม่แบบ","base"
"orders.createtemplate.cancelTemplate","Are you sure you want to discard the template?","ท่านต้องการที่จะยกเลิกการสร้างแม่แบบใช่หรือไม่?","base"
"orders.createtemplate.delivery","Delivery","การจัดส่งสินค้า","base"
"orders.createtemplate.details","Details","รายละเอียด","base"
"orders.createtemplate.dismiss","Dismiss","ยกเลิก","base"
"orders.createtemplate.duplicate.error","Template name already exists","ชื่อของแม่แบบซ้ำ","base"
"orders.createtemplate.edit","Edit","แก้ไข","base"
"orders.createtemplate.instructions","instructions","จัดส่งสินค้า","base"
"orders.createtemplate.invalidateProducts","Some line items may be removed based on the change to the package type and/or Ship-to","รายการสินค้าบางรายการอาจหายไปขึ้นอยู่กับการเปลี่ยนแปลงของชนิดของบรรจุภัณฑ์และ/หรือรหัสของสถานที่จัดส่ง","base"
"orders.createtemplate.items","Items","รายการ ","base"
"orders.createtemplate.kilogram","Kilogram","กิโลกรัม","base"
"orders.createtemplate.litreat15","Liter at 15&deg;C","ลิตร ที่ 15&deg;C","base"
"orders.createtemplate.name.mandatory.error","Template name is mandatory","ต้องการชื่อของแม่แบบ","base"
"orders.createtemplate.noPrdinSearch.error","No matching results","ไม่มีรายการที่กำลังค้นหา","base"
"orders.createtemplate.noproducts.error","Template must contain at least one line item to be saved","แม่แบบต้องมีรายการที่ถูกต้องอย่างน้อยหนึ่งรายการ กรุณาเพิ่มรหัสรายการสินค้า","base"
"orders.createtemplate.pack","Pack","Pack","base"
"orders.createtemplate.packagedorder","Packaged Order","สั่ง บรรจุ","base"
"orders.createtemplate.packagingtype","Package type","ชนิดบรรจุภัณฑ์","base"
"orders.createtemplate.pickup","Pickup","รถกระบะ","base"
"orders.createtemplate.placeholder.instructions","Enter instructions","กรุณาใส่คำสั่ง","base"
"orders.createtemplate.placeholder.ponumber","Enter Purchase Order number","ใส่หมายเลขใบสั่งซื้อ","base"
"orders.createtemplate.placeholder.productname","Enter product name or number","ใส่ชื่อผลิตภัณฑ์ หรือหมายเลขผลิตภัณฑ์","base"
"orders.createtemplate.placeholder.shipTo","Enter Ship-to name or number","กรุณาใส่ชื่อหรือรหัสของสถานที่จัดส่ง","base"
"orders.createtemplate.placeholder.soldTo","Enter Sold-to number","กรุณาใส่หมายเลขรหัสบัญชีลูกค้า","base"
"orders.createtemplate.placeholder.templatedescription","Template Description","คำอธิบาย แม่แบบ","base"
"orders.createtemplate.placeholder.templatename","Enter a template name (e.g., Weekly Order)","ใส่ชื่อต้นฉบับคำสั่งซื้อ","base"
"orders.createtemplate.po.error","Purchase Order number is mandatory","ต้องการใบสั่งซื้อ","base"
"orders.createtemplate.ponumber","PO number","เลขที่ใบสั่งซื้อ","base"
"orders.createtemplate.proceed","Do you want to proceed?","ท่านต้องการดำเนินการต่อหรือไม่?","base"
"orders.createtemplate.save.no","No","ไม่","base"
"orders.createtemplate.save.yes","Yes","ใช่","base"
"orders.createtemplate.savetemplate","Save Template","บันทึกแม่แบบ","base"
"orders.createtemplate.savetemplate.success","Template created","ต้นฉบับคำสั่งซื้อได้จัดทำขึ้นสำเร็จแล้ว","base"
"orders.createtemplate.savetemplateconfirm","Do you want to save the template?","ท่านต้องการบันทึกแม่แบบของท่านหรือไม่?","base"
"orders.createtemplate.shippingmethod","Shipping method","วิธี การจัดส่งสินค้า","base"
"orders.createtemplate.shipto.errormsg","This Ship-to is unavailable for placing orders. Please contact customer service.","รหัสของสถานที่จัดส่งของท่านเพื่อใช้ในการสั่งซื้อสินค้าไม่มีอยู่ในระบบ กรุณาติดต่อฝ่ายบริการลูกค้า","base"
"orders.createtemplate.shipto.mandatory.error","Ship-to is mandatory","ต้องมีรหัสของสถานที่จัดส่ง","base"
"orders.createtemplate.shipto.products.errormsg","Some line items may be removed if the package type and/or Ship-to is changed","รายการสินค้าบางรายการอาจหายไปหากเปลี่ยนแปลงชนิดของบรรจุภัณฑ์และ/หรือรหัสของสถานที่จัดส่ง","base"
"orders.createtemplate.shiptoaddress","Ship-to address","รหัสจัดส่ง","base"
"orders.createtemplate.soldto.errormsg","This Sold-to is unavailable for placing orders. Please contact customer service.","รหัสของสถานที่จัดส่งของท่านเพื่อใช้ในการสั่งซื้อสินค้าไม่มีอยู่ในระบบ กรุณาติดต่อฝ่ายบริการลูกค้า","base"
"orders.createtemplate.soldtoaddress","Sold-to address","รหัสบัญชี","base"
"orders.createtemplate.starttemplate","Start Template","เริ่มสร้างแม่แบบ","base"
"orders.createtemplate.templatedescription","Template Description","คำอธิบาย แม่แบบ","base"
"orders.createtemplate.templatename","Template Name","ชื่อแม่แบบ","base"
"orders.createtemplate.templaterequirement","Template requirements","กรอกรายละเอียดของแม่แบบ","base"
"orders.createtemplate.totalvolume","TOTAL VOLUME","ปริมาณ","base"
"orders.createtemplate.totalweight","TOTAL WEIGHT","น้ำหนัก รวม","base"
"orders.createtemplate.undo","Undo","แก้","base"
"orders.currentorder","Current order","คำสั่งซื้อปัจจุบัน","base"
"orders.dateperiod","Date range","ระยะเวลา","base"
"orders.datesearch","DD/MM/YY","วัน / เดือน / ปี","base"
"orders.day","Day","วัน","base"
"orders.days","Days","วัน","base"
"orders.draftmsg","Your order has been saved as a draft and can be retrieved from the Order Summary page","คำสั่งซื้อของท่านได้รับการบันทึกเป็นร่างคำสั่งซื้อและสามารถที่จะถูกดึงขึ้นมาได้จากหน้าสรุปคำสั่งซื้อ","base"
"orders.filter","Filter","ตั้งค่าตัวกรอง","base"
"orders.fliter","MISSING","กรอง","base"
"orders.from","From","จาก","base"
"orders.fromdate","Select date","เลือกวัน","base"
"orders.hour","hour","ชั่วโมง","base"
"orders.hours","hours","ชั่วโมง","base"
"orders.last13months","Last 13 months","13 เดือนที่ผ่านมา","base"
"orders.listtemplates.createtemplate","Create template","สร้างต้นฉบับคำสั่งซื้อ","base"
"orders.listtemplates.filter","Filter","ตั้งค่าตัวกรอง","base"
"orders.listtemplates.maxtempnotification","You cannot maintain more than 10 templates","ท่านไม่สามารถเก็บแม่แบบได้เกินกว่า 10 แม่แบบ","base"
"orders.listtemplates.maxtempnotification.close","Close","ปิด","base"
"orders.listtemplates.noorderdata","No order data available","ไม่มีข้อมูลเกี่ยวกับคำสั่งซื้อ","base"
"orders.listtemplates.noordermsg","No order data available","ไม่มีข้อมูลเกี่ยวกับคำสั่งซื้อ","base"
"orders.listtemplates.order","Order","คำสั่ง","base"
"orders.listtemplates.searchtemplate","Search by template name","ค้นหาแม่แบบคำสั่งซื้อ","base"
"orders.listtemplates.shipto","Ship-to","รหัสสถานที่จัดส่ง","base"
"orders.listtemplates.shiptoaddress","Ship-to (Address)","ที่อยู่ (2)","base"
"orders.listtemplates.template(s)","Template(s)","แม่แบบคำสั่งซื้อ","base"
"orders.listtemplates.templates","Templates","แม่แบบคำสั่งซื้อ","base"
"orders.managetemplates","Manage templates","สร้างแม่แบบคำสั่งซื้อ","base"
"orders.minute","Minute","นาทีที่แล้ว","base"
"orders.minutes","Minutes","นาทีที่แล้ว","base"
"orders.month","Month","เดือน","base"
"orders.months","Months","เดือน","base"
"orders.neworder","New order","คำสั่งซื้อใหม่","base"
"orders.noorderdata","No order data available","ไม่มีข้อมูลเกี่ยวกับคำสั่งซื้อ","base"
"orders.open","Open","เปิดคำสั่งซื้อ","base"
"orders.orders","Orders","คำสั่งซื้อ","base"
"orders.pack","Pack","Pack","base"
"orders.packaging","Package type","ชนิดบรรจุภัณฑ์","base"
"orders.placeholder.searchbox","Search by Purchase Order or order number","ค้นหาคำสั่งซื้อโดยหมายเลขใบสั่งซื้อหรือหมายเลขคำสั่งซื้อ","base"
"orders.placeholder.shipto","Ship-to (Address)","ที่อยู่ (2)","base"
"orders.pleasewait","Please wait","โปรดรอสักครู่","base"
"orders.po","Purchase Order","คำสั่งซื้อ","base"
"orders.print","Print","พิมพ์","base"
"orders.print.deliverynote","Delivery Note","ใบกำกับการขนส่ง","base"
"orders.print.estdeldate","Estimated delivery date","ประมาณการวันที่ทำการจัดส่งสินค้า","base"
"orders.print.orderdate","Order date","วันที่ทำการสั่งซื้อ","base"
"orders.print.orderno","Order number","หมายเลขคำสั่งซื้อ","base"
"orders.print.packagetype","Package type","ชนิดบรรจุภัณฑ์","base"
"orders.print.Plant","Plant","คลังน้ำมัน","base"
"orders.print.pleasewait","Please wait","กรุณารอสักครู่","base"
"orders.print.ponumber","Purchase Order number","เลขที่ใบสั่งซื้อ","base"
"orders.print.printedby","Printed by","พิมพ์โดย","base"
"orders.print.requesteddate","Requested date","วันที่ต้องการ","base"
"orders.print.shipcond","Shipping method","วิธีการจัดส่งสินค้า","base"
"orders.print.shippedto","Ship-to","รหัสสถานที่จัดส่ง","base"
"orders.print.shiptoacct","Ship-to account","รหัสสถานที่จัดส่ง","base"
"orders.print.status","Status","สถานะ","base"
"orders.print.totalvolume","Total volume","ปริมาณรวม","base"
"orders.print.totalweight","Total Weight","น้ำหนักรวม","base"
"orders.printmsg","Please select an order to print","กรุณาเลือกคำสั่งซื้อที่ต้องการพิมพ์","base"
"orders.search","Search by Purchase Order or order number","ค้าหาใบสั่งซื้อหรือเลขที่คำสั่งซื้อ","base"
"orders.selectdate","Select date","เลือกวัน","base"
"orders.shipto","Ship-to","รหัสสถานที่จัดส่ง","base"
"orders.shiptosearch","Ship-to (Address)","ที่อยู่ (2)","base"
"orders.show","Show more orders","แสดงคำสั่งซื้อทั้งหมด","base"
"orders.status","Status","สถานะ","base"
"orders.template.savedtemplate.createnewtemplate","Create new template","สร้างต้นฉบับคำสั่งซื้อใหม่","base"
"orders.template.savedtemplate.createorderfromtemplate","Create order from template","สร้างต้นฉบับคำสั่งซื้อจากแบบที่สร้างไว้","base"
"orders.template.savedtemplate.createtemplate","Create template","สร้างต้นฉบับคำสั่งซื้อ","base"
"orders.template.savedtemplate.print","Print","พิมพ์","base"
"orders.template.savedtemplate.savesuccess","Template has been saved successfully.","แม่แบบได้ถูกบันทึกเรียบร้อยแล้ว","base"
"orders.template.savedtemplate.templatecreated","Template created","จัดทำต้นฉบับคำสั่งซื้อแล้ว","base"
"orders.template.savedtemplate.view","View","ดูรายละเอียด","base"
"orders.to","To","ไปถึง","base"
"orders.todate","The start-date must precede the end-date","วันที่เริ่มต้นต้องอยู่ก่อนวันที่จบ","base"
"orders.upload","Upload","อัปโหลด","base"
"orders.usetemplate","Use template","ใช้แม่แบบคำสั่งซื้อ","base"
"orders.viewtemplate.createOrder","Create order","สร้างคำสั่งซื้อ","base"
"orders.viewtemplate.date","Date","วัน","base"
"orders.viewtemplate.delete","Delete template","ลบทิ้งต้นฉบับคำสั่งซื้อ","base"
"orders.viewtemplate.delete.no","No","ไม่","base"
"orders.viewtemplate.delete.yes","Yes","ใช่","base"
"orders.viewtemplate.deleteconfirm","Are you sure you want to delete this template?","ท่านแน่ใจแล้วหรือ ที่จะลบต้นฉบับคำสั่งซื้อทิ้ง ?","base"
"orders.viewtemplate.deletetemplate","Delete template","ลบทิ้งต้นฉบับคำสั่งซื้อ","base"
"orders.viewtemplate.delivery","Delivery","จัดส่ง","base"
"orders.viewtemplate.deliverydate","DD/MM/YY (Delivery date)","DD/MM/YY (วันที่ทำการส่งมอบสินค้า)","base"
"orders.viewtemplate.deliveryinstructions","Delivery instructions","คำชี้แนะในการจัดส่ง","base"
"orders.viewtemplate.describeyourtemplate","Template name","ชื่อแม่แบบ","base"
"orders.viewtemplate.details","Details","รายละเอียด","base"
"orders.viewtemplate.dismiss","Dismiss","ยกเลิก","base"
"orders.viewtemplate.instructions","Instructions","คำสั่ง","base"
"orders.viewtemplate.maxLineItems","Maximum number of line items (99) exceeded","เกินจำนวนรายการสินค้าสูงสุด(99)ที่กำหนดไว้ที่","base"
"orders.viewtemplate.packagedorder","Pack order","คำสั่งซื้อแบบPack ","base"
"orders.viewtemplate.pick","pickup","รับเอง","base"
"orders.viewtemplate.pickup","Pickup","รับเอง","base"
"orders.viewtemplate.placeholder.deliveryinstructions","Enter delivery instructions","คำชี้แนะในการจัดส่ง","base"
"orders.viewtemplate.placeholder.shippingmethod","Shipping method","วิธีการจัดส่งสินค้า","base"
"orders.viewtemplate.removeitem","This item has been removed","รายการนี้ได้ถูกเอาออกแล้ว","base"
"orders.viewtemplate.requested","Requested","คำร้องได้ถูกส่งไปแล้ว","base"
"orders.viewtemplate.save","Save Template","บันทึกแม่แบบ","base"
"orders.viewtemplate.savechanges","Save Change","บันทึกการเปลี่ยนแปลง","base"
"orders.viewtemplate.savecreateorder","Save and create order","บันทึกและสร้างคำสั่งซื้อ","base"
"orders.viewtemplate.savesuccess","Template has been saved successfully.","แม่แบบได้ถูกบันทึกเรียบร้อยแล้ว","base"
"orders.viewtemplate.template","Template","แบบตัวอย่าง","base"
"orders.viewtemplate.templatedescription","Template name","ชื่อแม่แบบ","base"
"orders.viewtemplate.templatedetails","Template details","รายละเอียดของแม่แบบ","base"
"orders.viewtemplate.templateitems","Template items","รายการของแม่แบบ","base"
"orders.viewtemplate.templaterequirements","Template requirements","ข้อกำหนดของต้นฉบับคำสั่งซื้อ","base"
"orders.viewtemplate.undo","Undo","แก้ไขย้อนกลับ","base"
"orders.week","Week","อาทิตย์","base"
"orders.weeks","Weeks","อาทิตย์","base"
"orders.year","Year","ปี","base"
"orders.years","Years","ปี","base"
"overlay.shipto.address","Address","ที่อยู่","base"
"overlay.shipto.city","City","ตำบล","base"
"overlay.shipto.filteroncity","Filter by city","ตั้งค่าตัวกรองโดยตำบล","base"
"overlay.shipto.filteronzipcode","Filter by zip code","รหัสสถานที่จัดส่ง","base"
"overlay.shipto.selectall","Select all","เลือกทั้งหมด","base"
"overlay.shipto.shiptonumber","Ship-to","รหัสสถานที่จัดส่ง","base"
"overlay.shipto.shiptos","Ship-to(s)","รหัสของสถานที่จัดส่ง","base"
"overlay.shipto.state","State","อำเภอ","base"
"overlay.shipto.streetaddress","Street Address","ที่อยู่","base"
"overlay.shipto.zipcode","Zip code","รหัสไปรษณ๊ย์","base"
"register.country.invalid","Please enter the country","กรุณาใส่ชื่อประเทศ","base"
"register.first.name.invalid","Please enter the first name","กรุณาใส่ชื่อ","base"
"register.last.name.invalid","Please enter the last name","กรุณาใส่ชื่อสกุล","base"
"register.phoneno.invalid","Please enter the phone number","กรุณาใส่เบอร์โทรศัพท์ที่สามารถติดต่อได้","base"
"registerpage.form.access","Access","การขอเข้าระบบ","base"
"registerpage.form.access.additional","The user should be able to additionally access the following systems","การขอเพิ่มระบบเพื่อใช้งาน","base"
"registerpage.form.access.additional.checkbox.five","Harte-Hanks","Harte-Hanks","base"
"registerpage.form.access.additional.checkbox.four","EMEBS","EMEBS","base"
"registerpage.form.access.additional.checkbox.one","DNET","DNET","base"
"registerpage.form.access.additional.checkbox.three","LIMS","LIMS","base"
"registerpage.form.access.additional.checkbox.two","Signum","Signum","base"
"registerpage.form.access.current","Does this user currently have access to ExxonMobil systems?","ท่านสามารถเข้าระบบอื่นของเอ็กซอนโมบิลได้หรือไม่?","base"
"registerpage.form.access.current.button.no","No","ไม่","base"
"registerpage.form.access.current.button.yes","Yes","ใช่","base"
"registerpage.form.access.current.userid","What is your current User ID?","รหัสการใช้งานของท่านในระบบนี้ ?","base"
"registerpage.form.access.current.userid.name","User ID","ชื่อลูกค้า","base"
"registerpage.form.access.dnet","DNET","DNET","base"
"registerpage.form.access.emebs","EMEBS","EMEBS","base"
"registerpage.form.access.harte_hanks","Harte-Hanks","Harte-Hanks","base"
"registerpage.form.access.lims","LIMS","LIMS","base"
"registerpage.form.access.request","User for whom you are requesting access","คุณกำลังขอเข้าระบบสำหรับ","base"
"registerpage.form.access.request.name","CS Self Serve (Default)","CS Self Serve (default)","base"
"registerpage.form.access.required","To which systems do you have access?","ระบบใดบ้างที่ท่านสามารถเข้าใช้ได้ ?","base"
"registerpage.form.access.required.checkbox.five","Harte-Hanks","Harte-Hanks","base"
"registerpage.form.access.required.checkbox.four","EMEBS","EMEBS","base"
"registerpage.form.access.required.checkbox.one","DNET","DNET","base"
"registerpage.form.access.required.checkbox.three","LIMS","LIMS","base"
"registerpage.form.access.required.checkbox.two","Signum","Signum","base"
"registerpage.form.access.signum","Signum","Signum","base"
"registerpage.form.confirm","Done","เรียบร้อย","base"
"registerpage.form.country","Country","ประเทศ","base"
"registerpage.form.email","Email","อีเมล์","base"
"registerpage.form.email.error","A request for a user profile associated with this email address already exists. Please contact customer service.","อีเมล์ในคำร้องขอได้ถูกใช้แล้ว กรุณาติดต่อฝ่ายบริการลูกค้า","base"
"registerpage.form.email.info","This email address will be used to communicate with the user regarding this access request.","จะใช้เพื่อสื่อสารกับผู้ใช้ เกี่ยวกับบัญชีของท่านและการขอใช้ระบบ","base"
"registerpage.form.firstName","First name","(ชื่อ)","base"
"registerpage.form.general.access","This form is used to request access for an account administrator (primary user)","แบบการขอใช้ระบบสำหรับผู้ใช้รอง ผู้ขอต้องแจ้งข้อมูลต่อไปนี้ เพื่อให้คำร้องขอของท่านได้รับการอนุมัติ โปรดกรอกข้อมูลข้างล่างให้ถูกต้องและให้ใช้กับผู้ใช้งานระบบเพียงหนึ่งท่านเท่านั้น","base"
"registerpage.form.general.access.info","To have this request approved the below information must be entered in accurately and apply to a single user's access to the system.","เพื่อให้คำร้องของท่านได้รับการอนุมัติ โปรดกรอกข้อมูลข้างล่างให้ถูกต้องและให้ใช้กับผู้ใช้งานระบบเพียงหนึ่งท่านเท่านั้น","base"
"registerpage.form.general.info","General information","ข้อมูลข่าวสารทั่วไป","base"
"registerpage.form.isprimary.error","A request for a user profile associated with this email address already exists. Please contact customer service.","อีเมล์ในคำร้องขอได้ถูกใช้แล้ว กรุณาติดต่อฝ่ายบริการลูกค้า","base"
"registerpage.form.lastName","Last name","(นามสกุล)","base"
"registerpage.form.name","Name","ชื่อ นามสกุล","base"
"registerpage.form.next","Next","ถัดไป","base"
"registerpage.form.phone","Phone number","เบอร์โทรศัพท์","base"
"registerpage.form.proceed","Next","ไปต่อ","base"
"registerpage.form.request.user.access","Request user access","คำร้องขอการเข้าระบบ","base"
"registerpage.form.server.fail","An error occurred while processing your request","เกิดข้อผิดพลาดขณะทำการปรับปรุงคำร้องของท่าน","base"
"registerpage.form.soldTo","Sold-to account","เชื่อมกับบัญชีหลักหมายเลข","base"
"registerpage.form.soldto.error","The combination of Sold-to and Country is not valid","รหัสบัญชีลูกค้าและประเทศไม่ถูกต้อง","base"
"registerpage.form.soldto.validation.error","Please select Sold-to and Ship-to details","กรุณาเลือกรายละเอียดรหัสบัญชีลูกค้าและรหัสของสถานที่จัดส่ง","base"
"registerpage.form.soldtoexceed.error","The combination of Sold-to and Country is not valid","รหัสบัญชีลูกค้าและประเทศไม่ถูกต้อง","base"
"registerpage.form.success.access","Systems to access","ระบบต่างๆที่สามารถเข้าได้","base"
"registerpage.form.success.email","Email","อีเมล์","base"
"registerpage.form.success.message","Registered successfully","การลงทะเบียนสำเร็จ","base"
"registerpage.form.success.message.text","We have received your request for account administrator (primary user) access. We will respond to your request within 48 hours.","คำขอเปิดบัญชีสำรองของท่านอยู่ในระหว่างดำเนินการ เราจะแจ้งให้ทราบภายใน 24/48 ช.ม","base"
"registerpage.form.success.secSoldTo","Sold-to access","การเข้าสู่รหัสบัญชีลูกค้า","base"
"registerpage.form.success.secSoldToMsg","You have access to {0} Ship-to(s)","ท่านมีรหัสจัดส่งสินค้าภายใต้รหัสบัญชีนี้ {0} บัญชี","base"
"registerpage.form.success.soldTo","Sold-to account(s)","รหัสบัญชีลูกค้า","base"
"registerpage.form.validation.error","Please complete all mandatory fields","กรุณาใส่ข้อมูลที่ต้องการทั้งหมด","base"
"registerpage.form.validation.userid.error","Please enter the User ID","กรุณาใส่","base"
"registerpage.form.workflow.error","An error occurred while processing your request","เกิดข้อผิดพลาดขณะทำการปรับปรุงคำร้องของท่าน","base"
"registerpage.heading","Register secondary user","ลงทะเบียนบัญชีลูกค้ารอง","base"
"registerpage.register.page1","General information","ข้อมูลทั่วไป","base"
"registerpage.register.page2","Access","การขอเข้าระบบ","base"
"registerpage.register.page3","Success","ยืนยันคำร้องขอ","base"