TABLE property
property.property_key,property.value_en,property.value_th,property.file_name
"account.tooltip.accessString","Other ExxonMobil websites to which the user has access","เว็บไซต์ของเอ็กซอนโมบิลที่ผู้ใช้สามารถเข้าถึงได้","base"
"account.tooltip.defaultLanguage","Default language associated with your User ID","ภาษาเริ่มต้นที่ผูกกับรหัสผู้ใช้","base"
"account.tooltip.privileges","Features to which the user has access","คุณสมบัติที่ผู้ใช้สามารถใช้ได้","base"
"account.tooltip.soldToAccount","The Sold-to(s) or Ship-to(s) to which the secondary user has access Manohar","รหัสบัญชีลูกค้าและรหัสของสถานที่จัดส่งซึ่งบัญชีลูกค้าที่สองสามารถใช้ได้","base"
"business.retrieve.error","We are unable to process your request. Please contact customer service.","ระบบไม่สามารถดำเนินการคำร้องของท่านได้ กรุณาติดต่อฝ่ายบริการลูกค้า","base"
"business.save.error","We are unable to process your request. Please contact customer service.","ระบบไม่สามารถดำเนินการคำร้องของท่านได้ กรุณาติดต่อฝ่ายบริการลูกค้า","base"
"catalog.content.add.addproduct","Add product","เพิ่มสินค้า","base"
"catalog.content.add.addtoorder","Add to order","เพิ่มเข้าไปในคำสั่งซื้อ","base"
"catalog.content.add.cancel","Cancel","ยกเลิก","base"
"catalog.content.add.quantity","Quantity","จำนวน","base"
"catalog.content.add.shipto","Ship-to","รหัสสถานที่จัดส่ง","base"
"catalog.content.add.soldto","Sold-to","รหัสบัญชีลูกค้า","base"
"catalog.content.addtoorder","Add to order","เพิ่มเข้าไปในคำสั่งซื้อ","base"
"catalog.content.alertmessage.orderCreated","The product catalog has been filtered based on the in-process order","รายการสินค้าถูกแสดงโดยขึ้นอยู่กับคำสั่งซื้อที่กำลังถูกดำเนินการ","base"
"catalog.content.alertmessage.pleasewait","Please wait","กรุณารอสักครู่","base"
"catalog.content.availableshipto","Available for Ship-to","สินค้าพร้อมจัดส่งสำหรับรหัสจัดส่ง","base"
"catalog.content.availablesoldto","Available for Sold-to","สร้างคำสั่งซื้อใหม่","base"
"catalog.content.clearfilter","Clear Filter","กรอง ล้าง","base"
"catalog.content.createneworder","Create new order","สร้างคำสั่งซื้อใหม่","base"
"catalog.content.filter","Filter","ตั้งค่าตัวกรอง","base"
"catalog.content.filtercurrent","(Filtered on current order)","(ตั้งค่าตัวกรองของคำสั่งซื้อในปัจจุบัน)","base"
"catalog.content.heading","Products","รายการ","base"
"catalog.content.materialname","Product name","ชื่อผลิตภัณฑ์","base"
"catalog.content.materialnumber","Product number","เลขที่สินค้า","base"
"catalog.content.moreproducts","Show more products ","แสดงผลิตภัณฑ์ทั้งหลาย","base"
"catalog.content.msds","MSDS","MSDS","base"
"catalog.content.nofilter","No matching results","ไม่มีรายการที่กำลังค้นหา","base"
"catalog.content.nomoreproducts","There are no more products to show","ไม่มีรายการสินค้าที่จะแสดง","base"
"catalog.content.noOfProds","Catalog","รายการ","base"
"catalog.content.packtype","Package type","ชนิดบรรจุภัณฑ์","base"
"catalog.content.pds","PDS","ข้อมูลผลิตภัณฑ์","base"
"catalog.content.productfamily","Product family","กลุ่มผลิตภัณฑ์","base"
"catalog.content.products","Products","ผลิตภัณฑ์","base"
"catalog.content.search","Search products","ค้นหาผลิตภัณฑ์หล่อลื่น","base"
"catalog.content.shipto.add.placeholder","Enter Ship-to name, number, or address","อัปโหลดคำสั่งซื้อ","base"
"catalog.content.shipto.placeholder","Ship-to (Address)","ที่อยู่ (2)","base"
"catalog.content.show","Show","แสดง","base"
"catalog.content.sortby","Sort by ","ลำดับโดย","base"
"cms.item.not.found.error","We are unable to process your request. Please try again later.","ระบบไม่สามารถดำเนินการคำร้องของท่านได้ในขณะนี้ กรุณาติดต่อกลับมาในภายหลัง","base"
"createtemplate.overlay.leavepagemsg","Do you want to navigate away from the page without saving the template?","ท่านต้องการที่จะออกจากหน้านี้โดยที่ยังไม่ได้บันทึกการเปลี่ยนแปลงของแม่แบบหรือไม่?","base"
"createtemplate.overlay.logoutMsg","Do you want to logout without saving the template?","ท่านต้องการออกจากระบบโดยที่ยังไม่ได้บันทึกแม่แบบหรือไม่?","base"
"createtemplate.overlay.next","Next","ถัดไป","base"
"createtemplate.overlay.proceed","Next","ดำเนินการ","base"
"createtemplate.overlay.stayonthepage","Stay on the page","อยู่ที่หน้านี้","base"
"createtemplate.overlay.unsavedchanges","Unsaved changes","การเปลี่ยนแปลงไม่ได้ถูกบันทึก","base"
"date.error","The start-date must precede the end-date","วันที่เริ่มต้นต้องอยู่ก่อนวันที่จบ","base"
"date.limit.error","You can view data only for last 13 months","ท่านสามารถดูข้อมูลย้อนหลังได้13เดือน","base"
"default.error","We are unable to process your request. Please contact customer service.","ระบบไม่สามารถดำเนินการคำร้องของท่านได้ กรุณาติดต่อฝ่ายบริการลูกค้า","base"
"editprofile.content.access","Access","การขอเข้าระบบ","base"
"editprofile.content.accesstext","Access to other ExxonMobil systems","การขอเพิ่มระบบเพื่อใช้งาน","base"
"editprofile.content.addEmail ","Add email","เพิ่มอีเมล์","base"
"editprofile.content.addevent","Add event","เพิ่มเหตุการณ์","base"
"editprofile.content.addrecipient","Add recipient","เพิ่มผู้รับ","base"
"editprofile.content.cancel","Cancel","ยกเลิก","base"
"editprofile.content.changepassword","Change Password","เปลี่ยนรหัสผ่าน","base"
"editprofile.content.citystatezip","City, state, zip code","ตำบล","base"
"editprofile.content.country","Country","ประเทศ","base"
"editprofile.content.defaultlang","Default language","ภาษาเริ่มต้น","base"
"editprofile.content.defaultlanguage","Default language","ภาษาเริ่มต้น","base"
"editprofile.content.edit","Edit","แก้ไข","base"
"editprofile.content.email","Email","อีเมล์","base"
"editprofile.content.emailaddress","Email","อีเมล์","base"
"editprofile.content.eventnotifications","Event notifications","เอกสารยืนยัน","base"
"editprofile.content.eventnotifications.error","Please enter a valid email address","กรุณาใส่อีเมล์ที่ถูกต้อง","base"
"editprofile.content.filter","Filter by city, zip code, etc.","ตั้งค่าตัวกรองโดยตำบล","base"
"editprofile.content.generalinformation","General Information","ข้อมูลข่าวสารทั่วไป","base"
"editprofile.content.heading","User profile","บัญชีของฉัน","base"
"editprofile.content.name","Name","ชื่อ นามสกุล","base"
"editprofile.content.orderacknowledged","Order acknowledged","รับทราบคำสั่งซื้อ","base"
"editprofile.content.phonecodeerror","Please enter a valid area code","กรุณาใส่รหัสพื้นที่ให้ถูกต้อง","base"
"editprofile.content.phonenumber","Phone number","เบอร์โทรศัพท์","base"
"editprofile.content.phonenumbererror","Please enter a valid phone number","กรุณาใส่เบอร์โทรศัพท์ที่สามารถติดต่อได้","base"
"editprofile.content.profilelinks","Profile Links","ลิงค์ของโปรไฟล์","base"
"editprofile.content.reassign.email","Email","อีเมล์","base"
"editprofile.content.reassign.filter","Filter by User ID, name, or email address","ตั้งค่าตัวกรองโดยรหัสผู้ใช้","base"
"editprofile.content.reassign.name","Name","ชื่อ นามสกุล","base"
"editprofile.content.reassign.retry","Role reassignment failed. Please try again.","การกำหนดบทบาทล้มเหลว กรุณาทำรายการใหม่","base"
"editprofile.content.reassign.sec.success","You have been designated as the primary user. You will be logged out after clicking OK.","ท่านได้ถูกการกำหนดให้เป็นผู้ใช้หลัก ท่านจะออกจากระบบหลังจากกด โอเค!","base"
"editprofile.content.reassign.success","Reassignment of the primary role was successful. You will be logged out after clicking OK.","การกำหนดผู้ใช้งานหลักใหม่สำเร็จแล้ว ท่านจะออกจากระบบหลังจากกด โอเค!","base"
"editprofile.content.reassign.success.ok","OK","โอเค","base"
"editprofile.content.reassign.userid","User ID","ชื่อลูกค้า","base"
"editprofile.content.reassignprimaryrole","Reassign primary role","การกำหนดผู้ใช้งานหลักใหม่","base"
"editprofile.content.save","Save","บันทึก","base"
"editprofile.content.selectnewprimary","Select new primary user","เลือกผู้ใช้งานหลัก","base"
"editprofile.content.selectprimary","Select new primary user","เลือกผู้ใช้งานหลัก","base"
"editprofile.content.selectuser","Please select the user to whom you wish to assign the primary role","กรุณาเลือกผู้ใช้ที่ท่านต้องการที่จะกำหนดให้มีบทบาทเป็นผู้ใช้หลัก","base"
"editprofile.content.setuppasswordhints","Setup password hints","คำแนะนำการตั้งค่ารหัสผ่าน","base"
"editprofile.content.shipto","Ship-to(s):","รหัสบัญชีทั้งหมด","base"
"editprofile.content.shiptonumber","Ship-to","รหัสของสถานที่จัดส่ง","base"
"editprofile.content.shiptos","Ship-to(s)","รหัสของสถานที่จัดส่ง","base"
"editprofile.content.shiptostotal","Ship-to(s):","รหัสจัดส่งทั้งหมด","base"
"editprofile.content.soldtoaccess","Sold-to access","การเข้าสู่รหัสบัญชีลูกค้า","base"
"editprofile.content.streetaddress","Street Address","ที่อยู่","base"
"editprofile.content.systemtext","Links to these applications will be available on your dashboard","การเชื่อมต่อแอปพริเคชั่นเหล่านี้สามารถทำได้ในเวปไซด์ของท่าน","base"
"editprofile.content.userid","User ID","ชื่อลูกค้า","base"
"editprofile.content.username","User ID","ชื่อลูกค้า","base"
"editprofile.language.success","Language has been updated","ภาษาได้รับการปรับปรุง","base"
"editprofile.overlay.leavepagemsg","Do you want to navigate away from the page without saving the profile changes?","ท่านต้องการที่จะออกจากหน้านี้โดยที่ยังไม่ได้บันทึกการเปลี่ยนแปลงของโปรไฟล์หรือไม่? ","base"
"editprofile.overlay.logoutMsg","Do you want to logout without saving the profile changes?","ท่านต้องการที่จะออกจากระบบโดยไม่บันทึก","base"
"editprofile.overlay.next","Next","ถัดไป","base"
"editprofile.overlay.proceed","Next","ดำเนินการต่อไป","base"
"editprofile.overlay.stayonthepage","Stay on the page","อยู่ที่หน้านี้","base"
"editprofile.overlay.unsavedchanges","Unsaved changes","การเปลี่ยนแปลงไม่ได้ถูกบันทึก","base"
"editprofile.phone.success","Phone number has been updated","เบอร์โทรศัพท์ได้รับการปรับปรุง","base"
"email.id.not.unique.error","A request for a user profile associated with this email address already exists. Please contact customer service.","อีเมล์ในคำร้องขอได้ถูกใช้แล้ว กรุณาติดต่อฝ่ายบริการลูกค้า","base"
"error.403.deactivated.message","Your User ID has been deactivated. Please contact customer service.","ชื่อผู้ใช้ของท่านได้ถูกยกเลิกการใช้งานชั่วคราว กรุณาติดต่อฝ่ายบริการลูกค้า","base"
"error.403.locked.message","Your User ID has been locked. Please contact customer service.","ชื่อผู้ใช้ของท่านได้ถูกล๊อกชั่วคราว กรุณาติดต่อฝ่ายบริการลูกค้า","base"
"error.403.thank-you-text","Thank you","ขอบคุณ","base"
"footer.copyright","© Copyright 2003-2014 ExxonMobil Corporation. All Rights Reserved.","ลิขสิทธิ์ของบริษัทเอ็กซอน โมบิล คอร์ปอเรชั่น  ซึ่งได้สร้างสรรค์งานนี้ขึ้นระหว่างปี พ.ศ. ๒๕๔๖–๒๕๕๗  สงวนสิทธิ์ทุกประการ","base"
"homepage.ago","ago","ก่อนหน้า","base"
"homepage.browsecatalog","Browse products","ดูข้อมูลเกี่ยวกับผลิตภัณฑ์","base"
"homepage.Close","Close","ปิด","base"
"homepage.createdon","Created on","สร้างเมื่อ","base"
"homepage.createorder","Create order","สร้างคำสั่งซื้อ","base"
"homepage.draft","Draft","แบบร่างคำสั่งซื้อ","base"
"homepage.home","Home","หน้าแรก","base"
"homepage.latestorders","Latest orders","คำสั่งซื้อล่าสุด","base"
"homepage.managetemplates","Manage templates","สร้างแม่แบบคำสั่งซื้อ","base"
"homepage.neworder","New order","คำสั่งซื้อใหม่","base"
"homepage.noorders","No order data available","ไม่มีข้อมูลเกี่ยวกับคำสั่งซื้อ","base"
"homepage.orders","Order(s)","คำสั่งซื้อ","base"
"homepage.po","Purchase Order number:","เลขที่ใบสั่งซื้อ","base"
"homepage.shipto","Ship-to:","รหัสสถานที่จัดส่ง","base"
"homepage.submitted","Submitted","ยืนยันคำสั่งซื้อแล้ว","base"
"homepage.upload","Upload","อัปโหลด","base"
"homepage.usetemplate","Use template","ใช้แม่แบบคำสั่งซื้อ","base"
"homepage.vieworders","View orders","ดูคำสั่งซื้อ","base"
"logout.defaultoverlay.confirm","Please confirm logout","กรุณา ยืนยันการ ออกจากระบบ","base"
"logout.defaultoverlay.logoutheader","Logout","ออกจากระบบ","base"
"logout.defaultoverlay.no","No","ไม่","base"
"logout.defaultoverlay.yes","Yes","ใช่","base"
"logout.timeoutoverlay.confirm","You will be automatically logged out in 5 minutes due to inactivity. Do you wish to logout now?","ท่านกำลังจะออกจากระบบภายใน 5 นาทีเนื่องจากไม่มีกิจกรรมใดๆ ท่านต้องการจะออกจากระบบตอนนี้หรือไม่?","base"
"logout.timeoutoverlay.logout","Logout","ออกจากระบบ","base"
"logout.timeoutoverlay.logoutheader","Session timeout","หมดเวลา","base"
"logout.timeoutoverlay.stayconnected","Stay on the page","อยู่ที่หน้านี้","base"
"logout.withcartoverlay.confirmcartmsg","Do you wish to save your order as a draft before logging out?","ท่านต้องการที่จะบันทึกคำสั่งซื้อของท่านให้เป็นร่างคำสั่งซื้อก่อนที่จะออกจากระบบหรือไม่?","base"
"logout.withcartoverlay.confirmchangecartmsg","Do you wish to submit your order before logging out?","ท่านต้องการที่จะส่งคำสั่งซื้อของท่านก่อนออกจากระบบหรือไม่?","base"
"logout.withcartoverlay.logout","Logout","ออกจากระบบ","base"
"logout.withcartoverlay.logoutheader","Logout","ออกจากระบบ","base"
"logout.withcartoverlay.stayconnected","Stay on the page","อยู่ที่หน้านี้","base"
"manageaccount.deletesecondaryuser.error","Unable to delete user. Please contact customer service.","ไม่สามารถลบผู้ใช้ กรุณาติดต่อฝ่ายบริการลูกค้า","base"
"manageaccount.deletesecondaryuser.success","User deleted","ผู้ใช้ได้ถูกลบแล้ว","base"
"minicart.currentorder","Current order","คำสั่งซื้อปัจจุบัน","base"
"minicart.ordercreated","Order created","คำสั่งซื้อได้ถูกสร้างแล้ว","base"
"minicart.productinorder","Product in order","สินค้าในคำสั่งซื้อ","base"
"minicart.savedraft","Save Draft","เก็บแบบร่างคำสั่งซื้อ","base"
"minicart.savedraft.success","Your order has been saved as a draft and can be retrieved from the Order Summary page","คำสั่งซื้อของท่านได้รับการบันทึกเป็นร่างคำสั่งซื้อและสามารถที่จะถูกดึงขึ้นมาได้จากหน้าสรุปคำสั่งซื้อ","base"
"minicart.shipto","Ship-to","รหัสสถานที่จัดส่ง","base"
"minicart.soldto","Sold-to","รหัสบัญชีลูกค้า","base"
"minicart.vieworder","View order","ดูคำสั่งซื้อ","base"
"myaccount.listsecondaryuserspage.email","Email","อีเมล์","base"
"myaccount.listsecondaryuserspage.filter","Search User ID, email, etc.","ค้นหาชื่อผู้ใช้  อีเมล์  ฯลฯ","base"
"myaccount.listsecondaryuserspage.firstName","Name","ชื่อ นามสกุล","base"
"myaccount.listsecondaryuserspage.heading","Active Secondary Users","บัญชีลูกค้า","base"
"myaccount.listsecondaryuserspage.pendingUser","Pending secondary users","ผู้ใช้รองที่ยังอยู่ระหว่างการดำเนินการ","base"
"myaccount.listsecondaryuserspage.phoneNumber","Phone number","เบอร์โทรศัพท์","base"
"myaccount.listsecondaryuserspage.registersecondaryuser","Register secondary user","ลงทะเบียนบัญชีลูกค้ารอง","base"
"myaccount.listsecondaryuserspage.search","Search User ID, email, etc.","ค้นหาชื่อผู้ใช้  อีเมล์  ฯลฯ","base"
"myaccount.listsecondaryuserspage.user","User ID","ชื่อลูกค้า","base"
"myaccount.listsecondaryuserspage.username","User ID","ชื่อลูกค้า","base"
"myaccount.secondaryuserdetailspage.access","Access","การขอเข้าระบบ","base"
"myaccount.secondaryuserdetailspage.access.addallshiptos","Add all Ship-tos","เพิ่มรหัสของสถานที่จัดส่งทั้งหมด","base"
"myaccount.secondaryuserdetailspage.access.addsoldto","Add Sold-to","ใส่รหัสบัญชี","base"
"myaccount.secondaryuserdetailspage.access.clear","Clear","เคลียร์","base"
"myaccount.secondaryuserdetailspage.access.nofilter","You did not select any criteria by which to filter","ท่านไม่ได้เลือกค่าใดๆที่ต้องใช้ในการตั้งค่าตัวกรอง","base"
"myaccount.secondaryuserdetailspage.access.remove","Remove","ลบออก","base"
"myaccount.secondaryuserdetailspage.access.removesoldto","Remove Sold-to","ลบรหัสบัญชี","base"
"myaccount.secondaryuserdetailspage.access.secondaryuser","Secondary User","ผู้ใช้สำรอง","base"
"myaccount.secondaryuserdetailspage.access.selectshiptos","Select Ship-tos ({0})","เลือกรหัสจัดส่ง ({0})","base"
"myaccount.secondaryuserdetailspage.access.shiptosintotal","Total count of Ship-to(s)","รหัสจัดส่งทั้งหมด","base"
"myaccount.secondaryuserdetailspage.access.soldtoaccess","Sold-to access","การเข้าสู่รหัสบัญชีลูกค้า","base"
"myaccount.secondaryuserdetailspage.access.undo","Undo","แก้ไขย้อนกลับ","base"
"myaccount.secondaryuserdetailspage.accessform.cancel","Cancel","ยกเลิก","base"
"myaccount.secondaryuserdetailspage.accessform.save","Save","บันทึก","base"
"myaccount.secondaryuserdetailspage.accounts","Accounts","บัญชี","base"
"myaccount.secondaryuserdetailspage.additionalaccess","Access to other ExxonMobil systems","การขอเพิ่มระบบเพื่อใช้งาน","base"
"myaccount.secondaryuserdetailspage.additionalaccess.dnet","DNET","DNET","base"
"myaccount.secondaryuserdetailspage.additionalaccess.signum","Signum","Signum","base"
"myaccount.secondaryuserdetailspage.delete.cancel","Cancel","ยกเลิก","base"
"myaccount.secondaryuserdetailspage.delete.cancelmessage","Cancelling will return you to the selected user","ยกเลิกเพื่อที่จะกับสู่ผู้ใช้ที่ได้ถูกเลือกไว้ก่อนหน้า","base"
"myaccount.secondaryuserdetailspage.delete.confirm","Confirm","ยืนยัน","base"
"myaccount.secondaryuserdetailspage.delete.confirmmessage","Please confirm your request to delete this user","กรุณายืนยันการร้องขอในการลบผู้ใช้นี้","base"
"myaccount.secondaryuserdetailspage.deletesecid","Delete Secondary User","ลบรหัสผู้ใช้รอง","base"
"myaccount.secondaryuserdetailspage.eventnotifications","Event notifications","เอกสารยืนยัน","base"
"myaccount.secondaryuserdetailspage.generalinformation","General information","ข้อมูลข่าวสารทั่วไป","base"
"myaccount.secondaryuserdetailspage.generalinformation.country","Country","ประเทศ","base"
"myaccount.secondaryuserdetailspage.generalinformation.email","Email","อีเมล์","base"
"myaccount.secondaryuserdetailspage.generalinformation.name","Name","ชื่อ นามสกุล","base"
"myaccount.secondaryuserdetailspage.generalinformation.phonenumber","Phone number","เบอร์โทรศัพท์","base"
"myaccount.secondaryuserdetailspage.generalinformation.username","User ID","ชื่อลูกค้า","base"
"myaccount.secondaryuserdetailspage.heading","User profile","บัญชีของฉัน","base"
"myaccount.secondaryuserdetailspage.privileges","Privileges","ผู้ใช้สามารถ (โปรดเลือก)","base"
"myaccount.secondaryuserdetailspage.privileges.createorders","Create order","สร้างคำสั่งซื้อ","base"
"myaccount.secondaryuserdetailspage.privileges.error","An error occurred while updating user privileges","เกิดข้อผิดพลาดขณะทำการปรับปรุงสิทธิของผู้ใช้","base"
"myaccount.secondaryuserdetailspage.privileges.success","User groups have been updated","กลุ่มของผู้ใช้งานระบบได้รับการปรับปรุง","base"
"myaccount.secondaryuserdetailspage.privileges.viewInvoice","View Invoice","ดู ใบแจ้งหนี้","base"
"myaccount.secondaryuserdetailspage.privileges.vieworders","View orders","ดูคำสั่งซื้อ","base"
"myaccount.secondaryuserdetailspage.privileges.viewPayment","View Payment","ดู วิธีการชำระเงิน","base"
"myaccount.secondaryuserdetailspage.privileges.viewpricing","View pricing","ดูรายละเอียดราคา","base"
"myaccount.secondaryuserdetailspage.removeuser","Remove user","ลบผู้ใช้","base"
"myaccount.secondaryuserdetailspage.secondaryUserAccessForm.error","Unable to save changes. Please contact customer service.","ไม่สามารถบันทึกการเปลี่ยนแปลงได้ กรุณาติดต่อฝ่ายบริการลูกค้า","base"
"myaccount.secondaryuserdetailspage.secondaryUserAccessForm.shipIo","Ship-to","รหัสสถานที่จัดส่ง","base"
"myaccount.secondaryuserdetailspage.secondaryUserAccessForm.success","User details saved","รายละเอียดของผู้ใช้ได้รับการบันทึก","base"
"myaccount.secondaryuserdetailspage.shipto.error","An error occurred while updating Ship-to access","เกิดข้อผิดพลาดขณะทำการปรับปรุงข้อมูลการเข้าถึงของรหัสสถานที่จัดส่ง","base"
"myaccount.secondaryuserdetailspage.shipto.success","Ship-to access has been updated","การเข้าถึงของรหัสสถานที่จัดส่งได้ถูกปรับปรุงแล้ว","base"
"order.acknowledge.billingblock","Billing block","การเรียกเก็บเงินถูกระงับชั่วคราว","base"
"order.acknowledge.cancelmsg","There are items in this order","ยังมีรายการสินค้าอยู่ในคำสั่งซื้อ","base"
"order.acknowledge.cancelmsg1","Cancel","ยกเลิก","base"
"order.acknowledge.cancelmsg2","Are you sure you want to cancel your order?","ท่านต้องการยกเลิกคำสั่งซื้อของท่านใช่หรือไม่?","base"
"order.acknowledge.cancelorder","Cancel order","ยกเลิกคำสั่งซื้อ","base"
"order.acknowledge.confirm","Confirm","ยืนยัน","base"
"order.acknowledge.createneworder","Create new order","สร้างคำสั่งซื้อใหม่","base"
"order.acknowledge.creates","Created","สร้างเสร็จแล้ว","base"
"order.acknowledge.cutofftime","Cut-off time","กำหนดเวลาในการรับใบสั่งซื้อ ","base"
"order.acknowledge.del","Delivery","จัดส่ง","base"
"order.acknowledge.delitems","Delivery items","จัดส่ง","base"
"order.acknowledge.delivery","Delivery","จัดส่ง","base"
"order.acknowledge.deliveryblock","Delivery block","การส่งมอบสินค้าถูกระงับชั่วคราว","base"
"order.acknowledge.deliverydate","Delivery date","วันที่จัดส่งสินค้า","base"
"order.acknowledge.details","Details","รายละเอียด","base"
"order.acknowledge.downloaddelnote","Download delivery note","ดาวน์โหลดใบกำกับการขนส่ง","base"
"order.acknowledge.editorder","Edit order","แก้ไขคำสั่งซื้อ","base"
"order.acknowledge.emergencyorder","Emergency order","คำสั่งซื้อฉุกเฉิน","base"
"order.acknowledge.estimatedeldate","Estimated delivery date","ประเมินวันที่จะส่งมอบได้","base"
"order.acknowledge.estimatedtotal","Estimated total","จำนวนเงินทั้งหมดโดยประมาณ","base"
"order.acknowledge.items","Items","จำนวนรายการ","base"
"order.acknowledge.kilograms","Kilograms","กิโลกรัม","base"
"order.acknowledge.litres","Liters","ลิตร","base"
"order.acknowledge.menu","Menu","เมนู","base"
"order.acknowledge.na","Not applicable","ไม่สามารถใช้ได้","base"
"order.acknowledge.orderdetails","Order details","รายละเอียดของคำสั่งซื้อ","base"
"order.acknowledge.orders","Orders","คำสั่งซื้อ","base"
"order.acknowledge.po","Purchase Order","คำสั่งซื้อ","base"
"order.acknowledge.print","Print","พิมพ์","base"
"order.acknowledge.reference","Reference","การอ้างอิง","base"
"order.acknowledge.replicateorder","Replicate order","ทำสำเนาคำสั่งซื้อ","base"
"order.acknowledge.reqdeldate","Requested delivery date","วันที่ต้องการให้จัดส่ง","base"
"order.acknowledge.saleshaulierins","Haulier Instructions","ใส่ทะเบียนรถและผู้รับในการรับสินค้า","base"
"order.acknowledge.shippinginstructions","Shipping instructions","คำแนะนำสำหรับการจัดส่ง","base"
"order.acknowledge.shippingtype","Shipping Method","วิธีการจัดส่งสินค้า","base"
"order.acknowledge.shiptoaccount","Ship-to account","รหัสจัดส่ง","base"
"order.acknowledge.shiptoaddress","Ship-to address","รหัสจัดส่ง","base"
"order.acknowledge.status","Status","สถานะ","base"
"order.acknowledge.success","Order <strong>{0}</strong> has been submitted successfully.","คำสั่งซื้อ <strong>{0}</strong> ถูกจัดส่งเรียบร้อยแล้ว","base"
"order.acknowledge.taxes","Taxes","ภาษี","base"
"order.acknowledge.totalvolume","Total volume","ปริมาณรวม","base"
"order.acknowledge.totalweight","Total weight","น้ำหนักรวม","base"
"order.acknowledge.view","View","ดูรายละเอียด","base"
"order.acknowledge.xomnotes","XOM Notes","บันทึกภายในของXOM","base"
"order.cancel.message","Order cancelled","คำสั่งซื้อได้ยกเลิกแล้ว","base"
"order.cancel.success","Your order has been successfully cancelled","คำสั่งซื้อของท่านได้ถูกยกเลิกแล้ว","base"
"order.link.orderhistory","View order history","ดูคำสั่งซื้อในอดีต","base"
"order.template.details.error","You are not authorized to view this template","ท่านไม่ได้รับอนุญาติให้ดูแม่แบบนี้","base"
"order.template.maxnumber.error","You cannot maintain more than 10 templates","ท่านไม่สามารถเก็บแม่แบบได้เกินกว่า 10 แม่แบบ","base"
"order.tooltip.createdOn","Date order was originally placed","วันที่ของวันแรกที่ทำการสั่งซื้อสินค้า","base"
"order.tooltip.estimatedPrice","Estimated price at the time of original submission","ประมาณการราคาของคำสั่งซื้อสินค้าทั้งหมด ณ วันที่ทำการสั่งซื้อ","base"
"order.tooltip.fromToFilter","Date range within the last 13 months","วันใดก็ได้ที่ไม่เกินกว่า13เดือนก่อน","base"
"order.tooltip.haulierInstructions","Please contact Customer Service to make changes to these instructions","กรุณาติดต่อฝ่ายบริการลูกค้าเพื่อที่จะทำการเปลี่ยนแปลงคำสั่งเหล่านี้","base"
"order.tooltip.monthFilter","Current month","เดือนปัจจุบัน","base"
"order.tooltip.orderStatus","Current status of the order","สถานะ","base"
"order.tooltip.plant","Plant from which the product is ordered","คลังสินค้าที่สินค้าถูกจัดส่ง","base"
"order.tooltip.shipToFilter","Filter can be based on a specific Ship-to","ตั้งค่าตัวกรองสามารถขึ้นอยู่กับรหัสของสถานที่จัดส่งหนึ่งๆ","base"
"order.tooltip.status","Selection based on the current status","การเลือกขึ้นอยู่กับสถานะในปัจจุบัน","base"
"order.tooltip.volume","Total volume of the order","ปริมาณรวมของคำสั่งซื้อ","base"
"order.tooltip.weekFilter","Sunday through Saturday","วันอาทิตย์ถึงวันเสาร์","base"
"order.tooltip.weight","Total weight of the order ","น้ำหนักรวมของสินค้าในคำสั่งซื้อทั้งหมด","base"
"orders.1month","1 month","1 เดือน","base"
"orders.1week","1 week","1 อาทิตย์","base"
"orders.3months","3 months","3 เดือน","base"
"orders.acknowledge.ordersubmitted","Order submitted","คำสั่งที่ดำเนินการแล้ว","base"
"orders.ago","ago","ก่อนหน้า","base"
"orders.bulk","Bulk","Bulk","base"
"orders.cancelmsg","Order successfully cancelled","คำสั่งซื้อถูกยกเลิกเรียบร้อยแล้ว","base"
"orders.cartpage.addfromcatalog","Add from catalog","เพิ่มรายการ","base"
"orders.cartpage.billingblock","Billing block","การเรียกเก็บเงินถูกระงับชั่วคราว","base"
"orders.cartpage.cancel","Cancel","ยกเลิก","base"
"orders.cartpage.cancellineitem","Cancel line item","ยกเลิกรายการสินค้าในคำสั่งซื้อ","base"
"orders.cartpage.cancellineitemoverlay.confirm","Are you sure you want to cancel the line item?","ท่านต้องการยกเลิกรายการในคำสั่งซื้อของท่านใช่หรือไม่?","base"
"orders.cartpage.cancellineitemoverlay.no","No","ไม่","base"
"orders.cartpage.cancellineitemoverlay.yes","Yes","ใช่","base"
"orders.cartpage.cancelorder","Discard order","ลบคำสั่งซื้อ","base"
"orders.cartpage.cancelorder.success","Order successfully discarded","คำสั่งซื้อของท่านได้ถูกยกเลิกแล้ว","base"
"orders.cartpage.canceloverlay.confirm","Do you want to discard this order?","ท่านต้องการที่จะละทิ้งคำสั่งซื้อนี้ใช้หรือไม่?","base"
"orders.cartpage.canceloverlay.no","No","ไม่","base"
"orders.cartpage.canceloverlay.yes","Yes","ใช่","base"
"orders.cartpage.close","Close","ปิด","base"
"orders.cartpage.createorder","Create order","สร้างคำสั่งซื้อ","base"
"orders.cartpage.customerinformation","Customer information","ข้อมูลลูกค้า","base"
"orders.cartpage.cutoff.after","The cut-off time for order changes has passed. Your Requested Delivery date will be adjusted.","คำร้องของท่านถูกดำเนินการหลังกำหนดเวลาในการรับใบสั่งซื้อ วันที่ต้องการให้จัดส่งของท่านจะถูกแก้ไขเป็นวันถัดไป","base"
"orders.cartpage.date","Date","วัน","base"
"orders.cartpage.datefilter","DD/MM/YY (Delivery date)","DD/MM/YY (วันที่ทำการส่งมอบสินค้า)","base"
"orders.cartpage.delivery","Delivery","จัดส่ง","base"
"orders.cartpage.deliveryblock","Delivery block","การส่งมอบสินค้าถูกระงับชั่วคราว","base"
"orders.cartpage.deliveryinstructions","Delivery instructions","คำชี้แนะในการจัดส่ง","base"
"orders.cartpage.dismiss","Dismiss","ยกเลิก","base"
"orders.cartpage.editorder","Edit order","แก้ไขคำสั่งซื้อ","base"
"orders.cartpage.emergencyorder","Emergency order","คำสั่งซื้อฉุกเฉิน","base"
"orders.cartpage.entershiptofilter","Enter Ship-to name, number, or address","กรุณาใส่ชื่อของสถานที่จัดส่งหรือรหัสของสถานที่จัดส่ง","base"
"orders.cartpage.estimatedeldate","Estimated delivery date","ประเมินวันที่จะส่งมอบได้","base"
