<?xml version="1.0" encoding="utf-8"?>
<!-- Generator: Adobe Illustrator 16.0.4, SVG Export Plug-In . SVG Version: 6.00 Build 0)  -->
<!DOCTYPE svg PUBLIC "-//W3C//DTD SVG 1.1//EN" "http://www.w3.org/Graphics/SVG/1.1/DTD/svg11.dtd">
<svg version="1.1" id="Layer_1" xmlns="http://www.w3.org/2000/svg" xmlns:xlink="http://www.w3.org/1999/xlink" x="0px" y="0px"
	 width="26px" height="84px" viewBox="0 0 26 84" enable-background="new 0 0 26 84" xml:space="preserve">
<rect x="0.5" y="0.5" fill="none" stroke="#D4D4D4" stroke-miterlimit="10" width="25" height="25"/>
<rect x="0.5" y="58.5" fill="none" stroke="#D4D4D4" stroke-miterlimit="10" width="25" height="25"/>
<g>
	<line fill="none" stroke="#424242" stroke-miterlimit="10" x1="4.984" y1="71.559" x2="11.198" y2="77.771"/>
	<line fill="none" stroke="#424242" stroke-miterlimit="10" x1="10.364" y1="77.771" x2="21.014" y2="67.123"/>
</g>
</svg>
