<?xml version="1.0" encoding="utf-8"?>
<!-- Generator: Adobe Illustrator 18.1.1, SVG Export Plug-In . SVG Version: 6.00 Build 0)  -->
<svg version="1.1" id="Layer_1" xmlns="http://www.w3.org/2000/svg" xmlns:xlink="http://www.w3.org/1999/xlink" x="0px" y="0px"
	 viewBox="0 100 600 600" enable-background="new 0 100 600 600" xml:space="preserve">
<g>
	<g>
		<g>
			<path fill="#007096" d="M0,400c0-165.5,134.6-300,300-300c165.5,0,300,134.5,300,300c0,165.4-134.5,300-300,300
				C134.6,700,0,565.4,0,400 M587.8,400c0-158.7-129.1-287.7-287.8-287.7c-158.7,0-287.9,129-287.9,287.7S141.3,687.7,300,687.7
				C458.7,687.7,587.8,558.6,587.8,400"/>
		</g>
	</g>
	<circle fill="#198340" cx="300" cy="400" r="167.5"/>
</g>
<image overflow="visible" width="502" height="109" xlink:href="../../../../../../../../Desktop/Screen Shot 2015-10-13 at 5.54.33 PM.png"  transform="matrix(1 0 0 1 621 495)">
</image>
</svg>
