<?xml version="1.0" encoding="utf-8"?>
<!-- Generator: Adobe Illustrator 18.1.1, SVG Export Plug-In . SVG Version: 6.00 Build 0)  -->
<svg version="1.1" id="Layer_1" xmlns="http://www.w3.org/2000/svg" xmlns:xlink="http://www.w3.org/1999/xlink" x="0px" y="0px"
	 viewBox="8.7 6.3 150.5 61.5" enable-background="new 8.7 6.3 150.5 61.5" xml:space="preserve">
<g>
	<rect x="10.5" y="8.3" opacity="0.4" fill="#FFFFFF" enable-background="new    " width="25" height="25"/>
	<rect x="10.5" y="8.3" fill="none" stroke="#D4D4D4" stroke-miterlimit="10" enable-background="new    " width="25" height="25"/>
</g>
<g>
	<g>
		<rect x="50.8" y="8.3" opacity="0.4" fill="#FFFFFF" enable-background="new    " width="25" height="25"/>
		
			<rect x="50.8" y="8.3" fill="none" stroke="#D4D4D4" stroke-miterlimit="10" enable-background="new    " width="25" height="25"/>
	</g>
	<g>
		<path fill="#D4D4D4" d="M53.9,18.8c0.2-0.2,0.5-0.2,0.7,0l7.2,7.2c0.2,0.2,0.2,0.5,0,0.7c-0.2,0.2-0.5,0.2-0.7,0l-7.2-7.2
			C53.7,19.3,53.7,19,53.9,18.8"/>
		<path fill="#D4D4D4" d="M61.2,26.6c-0.2-0.2-0.2-0.5,0-0.7L72.1,15c0.2-0.2,0.5-0.2,0.7,0c0.2,0.2,0.2,0.5,0,0.7L61.8,26.6
			C61.7,26.8,61.4,26.8,61.2,26.6"/>
	</g>
</g>
<g>
	<rect x="91.1" y="8.3" fill="#FFFFFF" enable-background="new    " width="25" height="25"/>
	<rect x="91.1" y="8.3" fill="none" stroke="#939393" stroke-miterlimit="10" enable-background="new    " width="25" height="25"/>
</g>
<g>
	<rect x="131.5" y="8.3" fill="#FFFFFF" enable-background="new    " width="25" height="25"/>
	
		<rect x="131.5" y="8.3" fill="none" stroke="#939393" stroke-miterlimit="10" enable-background="new    " width="25" height="25"/>
</g>
<g>
	<path fill="#2D6AB2" d="M134.5,18.8c0.2-0.2,0.5-0.2,0.7,0l7.2,7.2c0.2,0.2,0.2,0.5,0,0.7c-0.2,0.2-0.5,0.2-0.7,0l-7.2-7.2
		C134.3,19.3,134.3,19,134.5,18.8"/>
	<path fill="#2D6AB2" d="M141.8,26.6c-0.2-0.2-0.2-0.5,0-0.7L152.7,15c0.2-0.2,0.5-0.2,0.7,0c0.2,0.2,0.2,0.5,0,0.7l-10.9,10.9
		C142.3,26.8,142,26.8,141.8,26.6"/>
</g>
<g>
	<circle opacity="0.4" fill="#FFFFFF" enable-background="new    " cx="23" cy="54" r="12.5"/>
	<circle fill="none" stroke="#D4D4D4" stroke-miterlimit="10" enable-background="new    " cx="23" cy="54" r="12.5"/>
</g>
<g>
	<g>
		<circle opacity="0.4" fill="#FFFFFF" enable-background="new    " cx="63.3" cy="54" r="12.5"/>
		<circle fill="none" stroke="#D4D4D4" stroke-miterlimit="10" enable-background="new    " cx="63.3" cy="54" r="12.5"/>
	</g>
	<circle fill="#D4D4D4" cx="63" cy="54" r="3.8"/>
</g>
<g>
	<circle fill="#FFFFFF" enable-background="new    " cx="103.6" cy="54" r="12.5"/>
	<circle fill="none" stroke="#939393" stroke-miterlimit="10" enable-background="new    " cx="103.6" cy="54" r="12.5"/>
</g>
<g>
	<g>
		<circle fill="#FFFFFF" enable-background="new    " cx="144" cy="54" r="12.5"/>
		<circle fill="none" stroke="#939393" stroke-miterlimit="10" enable-background="new    " cx="144" cy="54" r="12.5"/>
	</g>
	<circle fill="#2D6AB2" cx="144" cy="54" r="3.8"/>
</g>
</svg>
